{
	"default": {
		"sapBrandColor": "#000000",
		"sapHighlightColor": "#000000",
		"sapBaseColor": "#7d8890",
		"sapShellColor": "transparent",
		"sapBackgroundColor": "#fafafa",
		"sapFontFamily": "\"72\", \"72full\", Arial, Helvetica, sans-serif",
		"sapFontHeaderFamily": "\"72\", \"72full\", Arial, Helvetica, sans-serif",
		"sapFontSize": ".875rem",
		"sapFontSmallSize": ".75rem",
		"sapFontLargeSize": "1rem",
		"sapFontHeader1Size": "1.625rem",
		"sapFontHeader2Size": "1.375rem",
		"sapFontHeader3Size": "1.25rem",
		"sapFontHeader4Size": "1.125rem",
		"sapFontHeader5Size": "1rem",
		"sapFontHeader6Size": ".875rem",
		"sapTextColor": "#333333",
		"sapLinkColor": "#0070b1",
		"sapLink_Hover_Color": "#0070b1",
		"sapLink_Active_Color": "#0070b1",
		"sapLink_Visited_Color": "#0070b1",
		"sapLink_InvertedColor": "#7ed0ff",
		"sapCompanyLogo": "url('../../../../../../Base/baseLib/open_space_belize/img/misc/sapCompanyLogo.png')",
		"sapBackgroundImage": "none",
		"sapBackgroundImageOpacity": "1.0",
		"sapBackgroundImageRepeat": "false",
		"sapContent_GridSize": "1rem",
		"sapAccentColor1": "#e09d00",
		"sapAccentColor2": "#e6600d",
		"sapAccentColor3": "#c14646",
		"sapAccentColor4": "#ab218e",
		"sapAccentColor5": "#678bc7",
		"sapAccentColor6": "#0092d1",
		"sapAccentColor7": "#1a9898",
		"sapAccentColor8": "#759421",
		"sapAccentColor9": "#925ace",
		"sapAccentColor10": "#647987",
		"sapLegendColor1": "#ad7900",
		"sapLegendColor2": "#dc5c0c",
		"sapLegendColor3": "#c14646",
		"sapLegendColor4": "#853808",
		"sapLegendColor5": "#da3fb9",
		"sapLegendColor6": "#008bc7",
		"sapLegendColor7": "#198f8f",
		"sapLegendColor8": "#6e8c1f",
		"sapLegendColor9": "#648796",
		"sapLegendColor10": "#80196a",
		"sapLegendColor11": "#6f5925",
		"sapLegendColor12": "#b64600",
		"sapLegendColor13": "#d61818",
		"sapLegendColor14": "#976c52",
		"sapLegendColor15": "#73596d",
		"sapLegendColor16": "#5d759e",
		"sapLegendColor17": "#466c6c",
		"sapLegendColor18": "#626b4a",
		"sapLegendColor19": "#284d5d",
		"sapLegendColor20": "#1851b0",
		"sapErrorBackground": "#ffe4e4",
		"sapWarningBackground": "#fef0db",
		"sapSuccessBackground": "#e4f5e4",
		"sapInformationBackground": "#ebf2f7",
		"sapNeutralBackground": "#f4f5f6",
		"sapErrorBorderColor": "#e00",
		"sapWarningBorderColor": "#f9a429",
		"sapSuccessBorderColor": "#38a238",
		"sapInformationBorderColor": "#427cac",
		"sapNeutralBorderColor": "#5e696e",
		"sapNegativeElementColor": "#bb0000",
		"sapCriticalElementColor": "#e78c07",
		"sapPositiveElementColor": "#2b7c2b",
		"sapInformativeElementColor": "#427cac",
		"sapNeutralElementColor": "#5e696e",
		"sapNegativeTextColor": "#bb0000",
		"sapCriticalTextColor": "#e78c07",
		"sapPositiveTextColor": "#2b7c2b",
		"sapInformativeTextColor": "#427cac",
		"sapNeutralTextColor": "#5e696e",
		"sapNegativeColor": "#bb0000",
		"sapCriticalColor": "#e78c07",
		"sapPositiveColor": "#2b7c2b",
		"sapInformativeColor": "#427cac",
		"sapNeutralColor": "#5e696e",
		"sapErrorColor": "#e00",
		"sapWarningColor": "#f9a429",
		"sapSuccessColor": "#38a238",
		"sapInformationColor": "#427cac",
		"sapIndicationColor_1": "#880000",
		"sapIndicationColor_2": "#bb0000",
		"sapIndicationColor_3": "#e78c07",
		"sapIndicationColor_4": "#2b7c2b",
		"sapIndicationColor_5": "#427cac",
		"sapSelectedColor": "#000000",
		"sapActiveColor": "#000000",
		"sapHighlightTextColor": "#fff",
		"sapTitleColor": "#333333",
		"sapElement_LineHeight": "3rem",
		"sapElement_Height": "2.5rem",
		"sapElement_BorderWidth": ".0625rem",
		"sapElement_BorderCornerRadius": ".25rem",
		"sapElement_Compact_LineHeight": "2rem",
		"sapElement_Compact_Height": "1.625rem",
		"sapElement_Condensed_LineHeight": "1.5rem",
		"sapElement_Condensed_Height": "1.375rem",
		"sapContent_LineHeight": "1.4",
		"sapContent_ElementHeight": "1.37em",
		"sapContent_ElementHeight_PX": "22px",
		"sapContent_IconHeight": "1rem",
		"sapContent_IconColor": "#000",
		"sapContent_ContrastIconColor": "#fff",
		"sapContent_NonInteractiveIconColor": "#878787",
		"sapContent_MarkerIconColor": "#678bc7",
		"sapContent_MarkerTextColor": "#147575",
		"sapContent_ImagePlaceholderBackground": "#677178",
		"sapContent_ImagePlaceholderForegroundColor": "#8b959c",
		"sapContent_RatedColor": "#e09d00",
		"sapContent_UnratedColor": "#a5a5a5",
		"sapContent_FocusColor": "#000",
		"sapContent_FocusStyle": "dotted",
		"sapContent_FocusWidth": ".0625rem",
		"sapContent_ContrastFocusColor": "#fff",
		"sapContent_ShadowColor": "#000",
		"sapContent_ContrastShadowColor": "#fff",
		"sapContent_Shadow0": "0 0 0 1px rgba(0,0,0,0.15)",
		"sapContent_Shadow1": "0 0.125rem 0.5rem 0 rgba(0,0,0,0.15), 0 0 0 1px rgba(0,0,0,0.15)",
		"sapContent_Shadow2": "0 0.625rem 1.875rem 0 rgba(0,0,0,0.15), 0 0 0 1px rgba(0,0,0,0.15)",
		"sapContent_Shadow3": "0 1.25rem 5rem 0 rgba(0,0,0,0.15), 0 0 0 1px rgba(0,0,0,0.15)",
		"sapContent_TextShadow": "0 0 0.125rem #fff",
		"sapContent_HeaderShadow": "0 0.125rem 0 0 #7d8890, inset 0 -0.125rem 0 0 #939ca3",
		"sapContent_SearchHighlightColor": "#d4f7db",
		"sapContent_HelpColor": "#3f8600",
		"sapContent_LabelColor": "#666",
		"sapContent_MonospaceFontFamily": "lucida console, monospace",
		"sapContent_DisabledTextColor": "rgba(51,51,51,0.5)",
		"sapContent_DisabledOpacity": "0.5",
		"sapContent_ContrastTextThreshold": "0.65",
		"sapContent_ContrastTextColor": "#fff",
		"sapContent_ForegroundColor": "#e5e5e5",
		"sapContent_ForegroundBorderColor": "#bfbfbf",
		"sapContent_ForegroundTextColor": "#333",
		"sapContent_BadgeBackground": "#c14646",
		"sapContent_DragAndDropActiveColor": "#0070b1",
		"sapShell_Background": "#686b6d",
		"sapShell_BackgroundImage": "url('../../../../../../Base/baseLib/open_space_belize/img/misc/sapShell_BackgroundImage.jpeg')",
		"sapShell_BackgroundGradient": "url('../../../../../../Base/baseLib/open_space_belize/img/misc/sapShell_BackgroundImage.jpeg')",
		"sapShell_BackgroundImageOpacity": "1.0",
		"sapShell_BackgroundImageRepeat": "false",
		"sapShell_BorderColor": "transparent",
		"sapShell_TextColor": "#000",
		"sapShell_InteractiveTextColor": "#000",
		"sapShell_InteractiveBorderColor": "#bfbfbf",
		"sapShell_GroupTitleTextColor": "#333333",
		"sapShell_Hover_Background": "#000",
		"sapShell_Active_Background": "#000000",
		"sapShell_Active_TextColor": "#fff",
		"sapShell_Selected_Background": "#000000",
		"sapShell_Selected_TextColor": "#fff",
		"sapShell_Selected_Hover_Background": "#000000",
		"sapShell_Favicon": "none",
		"sapShell_Navigation_Background": "transparent",
		"sapShell_Navigation_SelectedColor": "#000",
		"sapShell_Navigation_Selected_TextColor": "#000",
		"sapShell_Navigation_TextColor": "#333333",
		"sapShell_Shadow": "0 0.125rem 0 0 #5c5e60",
		"sapButton_BorderWidth": ".0625rem",
		"sapButton_BorderCornerRadius": ".1875rem",
		"sapButton_Background": "#f7f7f7",
		"sapButton_BorderColor": "#ababab",
		"sapButton_TextColor": "#000",
		"sapButton_Disabled_Background": "lime",
		"sapButton_Disabled_BorderColor": "lime",
		"sapButton_Disabled_TextColor": "lime",
		"sapButton_Hover_Background": "#eaeaea",
		"sapButton_Hover_BorderColor": "#ababab",
		"sapButton_Hover_TextColor": "#000",
		"sapButton_IconColor": "#000",
		"sapButton_Active_Background": "#000000",
		"sapButton_Active_BorderColor": "#000000",
		"sapButton_Active_TextColor": "#fff",
		"sapButton_Emphasized_Background": "#1a1a1a",
		"sapButton_Emphasized_BorderColor": "#0d0d0d",
		"sapButton_Emphasized_TextColor": "#fff",
		"sapButton_Emphasized_Hover_Background": "#0d0d0d",
		"sapButton_Emphasized_Hover_BorderColor": "#0d0d0d",
		"sapButton_Emphasized_Hover_TextColor": "#fff",
		"sapButton_Emphasized_Active_Background": "#000000",
		"sapButton_Emphasized_Active_BorderColor": "#000000",
		"sapButton_Emphasized_TextShadow": "rgba(0,0,0,0.5)",
		"sapButton_Emphasized_FontWeight": "regular",
		"sapButton_Reject_Background": "#f7f7f7",
		"sapButton_Reject_BorderColor": "#bb0000",
		"sapButton_Reject_Hover_Background": "#eaeaea",
		"sapButton_Reject_Hover_BorderColor": "#bb0000",
		"sapButton_Reject_Hover_TextColor": "#b00",
		"sapButton_Reject_Active_Background": "#bb0000",
		"sapButton_Reject_Active_BorderColor": "#bb0000",
		"sapButton_Reject_TextColor": "#b00",
		"sapButton_Accept_Background": "#f7f7f7",
		"sapButton_Accept_BorderColor": "#2b7c2b",
		"sapButton_Accept_Hover_Background": "#eaeaea",
		"sapButton_Accept_Hover_BorderColor": "#2b7c2b",
		"sapButton_Accept_Hover_TextColor": "#2b7c2b",
		"sapButton_Accept_Active_Background": "#2b7c2b",
		"sapButton_Accept_Active_BorderColor": "#2b7c2b",
		"sapButton_Accept_TextColor": "#2b7c2b",
		"sapButton_Lite_Background": "transparent",
		"sapButton_Lite_BorderColor": "transparent",
		"sapButton_Lite_TextColor": "#000",
		"sapButton_Lite_Hover_Background": "rgba(178,178,178,0.5)",
		"sapButton_Lite_Hover_BorderColor": "transparent",
		"sapButton_Lite_Hover_TextColor": "#000",
		"sapButton_Lite_Active_Background": "#000000",
		"sapButton_Lite_Active_BorderColor": "#000000",
		"sapButton_Selected_Background": "#000",
		"sapButton_Selected_BorderColor": "#000",
		"sapButton_Selected_TextColor": "#fff",
		"sapButton_Selected_Hover_Background": "#1a1a1a",
		"sapButton_Selected_Hover_BorderColor": "#1a1a1a",
		"sapField_Background": "#ffffff",
		"sapField_BorderColor": "#bfbfbf",
		"sapField_TextColor": "#000",
		"sapField_PlaceholderTextColor": "#757575",
		"sapField_HelpBackground": "#ffffff",
		"sapField_BorderWidth": ".0625rem",
		"sapField_BorderCornerRadius": "0",
		"sapField_Hover_Background": "#ffffff",
		"sapField_Hover_BorderColor": "#000000",
		"sapField_Hover_HelpBackground": "#000000",
		"sapField_Active_BorderColor": "#000000",
		"sapField_Focus_Background": "#ffffff",
		"sapField_Focus_BorderColor": "#bfbfbf",
		"sapField_Focus_HelpBackground": "#ffffff",
		"sapField_Disabled_Background": "lime",
		"sapField_Disabled_BorderColor": "lime",
		"sapField_Disabled_TextColor": "rgba(0,0,0,0.5)",
		"sapField_Disabled_HelpBackground": "lime",
		"sapField_ReadOnly_Background": "rgba(242,242,242,0.5)",
		"sapField_ReadOnly_BorderColor": "#ccc",
		"sapField_ReadOnly_HelpBackground": "rgba(242,242,242,0.5)",
		"sapField_RequiredColor": "#c14646",
		"sapField_InvalidColor": "#e00",
		"sapField_InvalidBackground": "#ffffff",
		"sapField_WarningColor": "#f9a429",
		"sapField_WarningBackground": "#ffffff",
		"sapField_SuccessColor": "#38a238",
		"sapField_SuccessBackground": "#ffffff",
		"sapField_InformationColor": "#427cac",
		"sapField_InformationBackground": "#ffffff",
		"sapGroup_TitleBackground": "transparent",
		"sapGroup_TitleBorderColor": "#ccc",
		"sapGroup_TitleTextColor": "#333",
		"sapGroup_Title_FontSize": ".875rem",
		"sapGroup_ContentBackground": "#fff",
		"sapGroup_ContentBorderColor": "#ebebeb",
		"sapGroup_BorderWidth": ".0625rem",
		"sapGroup_BorderCornerRadius": "0",
		"sapGroup_FooterBackground": "transparent",
		"sapToolbar_Background": "transparent",
		"sapToolbar_SeparatorColor": "rgba(63,81,97,0.2)",
		"sapList_HeaderBackground": "#f7f7f7",
		"sapList_HeaderBorderColor": "#e5e5e5",
		"sapList_HeaderTextColor": "#333",
		"sapList_BorderColor": "#e5e5e5",
		"sapList_BorderWidth": ".0625rem",
		"sapList_TextColor": "#333",
		"sapList_Active_Background": "#000000",
		"sapList_Active_TextColor": "#fff",
		"sapList_HighlightColor": "#000000",
		"sapList_SelectionBackgroundColor": "#787878",
		"sapList_SelectionBorderColor": "#e5e5e5",
		"sapList_Hover_SelectionBackground": "#707070",
		"sapList_Background": "#ffffff",
		"sapList_Hover_Background": "#f0f0f0",
		"sapList_GroupHeaderBackground": "#ffffff",
		"sapList_GroupHeaderBorderColor": "#ccc",
		"sapList_GroupHeaderTextColor": "#147575",
		"sapList_FooterBackground": "#677178",
		"sapList_FooterTextColor": "#fff",
		"sapList_TableGroupHeaderBackground": "#f2f2f2",
		"sapList_TableGroupHeaderBorderColor": "#ccc",
		"sapList_TableGroupHeaderTextColor": "#147575",
		"sapList_TableFooterBorder": "#ccc",
		"sapList_TableFixedBorderColor": "#999",
		"sapScrollBar_FaceColor": "#b2b2b2",
		"sapScrollBar_TrackColor": "#fff",
		"sapScrollBar_BorderColor": "#b2b2b2",
		"sapScrollBar_SymbolColor": "#000",
		"sapScrollBar_Dimension": ".7rem",
		"sapScrollBar_Hover_FaceColor": "#aaa",
		"sapPageHeader_Background": "#7d8890",
		"sapPageHeader_BorderColor": "#69747b",
		"sapPageHeader_TextColor": "#fff",
		"sapPageFooter_Background": "#ffffff",
		"sapPageFooter_BorderColor": "#ebebeb",
		"sapPageFooter_TextColor": "#333",
		"sapInfobar_Background": "#168282",
		"sapInfobar_Hover_Background": "#147575",
		"sapInfobar_Active_Background": "#000000",
		"sapObjectHeader_Background": "#7d8890",
		"sapObjectHeader_BorderColor": "#939ca3",
		"sapBlockLayer_Background": "#000",
		"sapTile_Background": "#ffffff",
		"sapTile_Hover_Background": "#f7f7f7",
		"sapTile_Active_Background": "#f7f7f7",
		"sapTile_BorderColor": "transparent",
		"sapTile_TitleTextColor": "#333",
		"sapTile_TextColor": "#666",
		"sapTile_IconColor": "#575757",
		"sapChart_OrderedColor_1": "#5899da",
		"sapChart_OrderedColor_2": "#e8743b",
		"sapChart_OrderedColor_3": "#19a979",
		"sapChart_OrderedColor_4": "#ed4a7b",
		"sapChart_OrderedColor_5": "#945ecf",
		"sapChart_OrderedColor_6": "#13a4b4",
		"sapChart_OrderedColor_7": "#525df4",
		"sapChart_OrderedColor_8": "#bf399e",
		"sapChart_OrderedColor_9": "#6c8893",
		"sapChart_OrderedColor_10": "#ee6868",
		"sapChart_OrderedColor_11": "#2f6497",
		"sapChart_Bad": "#dc0d0e",
		"sapChart_Critical": "#de890d",
		"sapChart_Good": "#3fa45b",
		"sapChart_Neutral": "#848f94",
		"sapChart_Sequence_1": "#5899da",
		"sapChart_Sequence_2": "#e8743b",
		"sapChart_Sequence_3": "#19a979",
		"sapChart_Sequence_4": "#ed4a7b",
		"sapChart_Sequence_5": "#945ecf",
		"sapChart_Sequence_6": "#13a4b4",
		"sapChart_Sequence_7": "#525df4",
		"sapChart_Sequence_8": "#bf399e",
		"sapChart_Sequence_9": "#6c8893",
		"sapChart_Sequence_10": "#ee6868",
		"sapChart_Sequence_11": "#2f6497",
		"sapChart_Sequence_Neutral": "#848f94",
		"sapUiBrand": "#000000",
		"sapUiHighlight": "#000000",
		"sapUiBaseColor": "#7d8890",
		"sapUiShellColor": "transparent",
		"sapUiBaseBG": "#fafafa",
		"sapUiGlobalBackgroundColor": "#fafafa",
		"sapUiFontFamily": "\"72\", \"72full\", Arial, Helvetica, sans-serif",
		"sapUiFontHeaderFamily": "\"72\", \"72full\", Arial, Helvetica, sans-serif",
		"sapUiFontSize": "16px",
		"sapMFontSmallSize": ".75rem",
		"sapMFontMediumSize": ".875rem",
		"sapMFontLargeSize": "1rem",
		"sapMFontHeader1Size": "1.625rem",
		"sapMFontHeader2Size": "1.375rem",
		"sapMFontHeader3Size": "1.25rem",
		"sapMFontHeader4Size": "1.125rem",
		"sapMFontHeader5Size": "1rem",
		"sapMFontHeader6Size": ".875rem",
		"sapUiBaseText": "#333333",
		"sapUiLink": "#0070b1",
		"sapUiGlobalLogo": "url('../../../../../../Base/baseLib/open_space_belize/img/misc/sapCompanyLogo.png')",
		"sapUiGlobalBackgroundImage": "none",
		"sapUiBackgroundImage": "none",
		"sapUiUx3ShellBackgroundImageURL": "none",
		"sapUiGlobalBackgroundImageOpacity": "1.0",
		"sapUiGlobalBackgroundRepeat": "false",
		"sapUiSelected": "#000000",
		"sapUiActive": "#000000",
		"sapUiHighlightTextColor": "#fff",
		"sapUiTextTitle": "#333333",
		"sapUiLinkHover": "#0070b1",
		"sapUiLinkActive": "#0070b1",
		"sapUiLinkVisited": "#0070b1",
		"sapUiLinkInverted": "#7ed0ff",
		"sapUiElementLineHeight": "3rem",
		"sapUiElementHeight": "2.5rem",
		"sapUiElementBorderWidth": ".0625rem",
		"sapUiElementBorderCornerRadius": ".25rem",
		"sapUiElementCompactLineHeight": "2rem",
		"sapUiElementCompactHeight": "1.625rem",
		"sapUiElementCondensedLineHeight": "1.5rem",
		"sapUiElementCondensedHeight": "1.375rem",
		"sapUiContentLineHeight": "1.4",
		"sapUiContentElementHeight": "1.37em",
		"sapUiContentElementHeightPX": "22px",
		"sapUiContentIconHeight": "1rem",
		"sapUiContentIconColor": "#000",
		"sapUiContentContrastIconColor": "#fff",
		"sapUiContentNonInteractiveIconColor": "#878787",
		"sapUiContentMarkerIconColor": "#678bc7",
		"sapUiContentMarkerTextColor": "#147575",
		"sapUiContentImagePlaceholderBackground": "#677178",
		"sapUiContentImagePlaceholderForegroundColor": "#8b959c",
		"sapUiContentRatedColor": "#e09d00",
		"sapUiContentUnratedColor": "#a5a5a5",
		"sapUiContentFocusColor": "#000",
		"sapUiContentFocusStyle": "dotted",
		"sapUiContentFocusWidth": ".0625rem",
		"sapUiContentContrastFocusColor": "#fff",
		"sapUiContentShadowColor": "#000",
		"sapUiContentContrastShadowColor": "#fff",
		"sapUiContentShadow0": "0 0 0 1px rgba(0,0,0,0.15)",
		"sapUiContentShadow1": "0 0.125rem 0.5rem 0 rgba(0,0,0,0.15), 0 0 0 1px rgba(0,0,0,0.15)",
		"sapUiContentShadow2": "0 0.625rem 1.875rem 0 rgba(0,0,0,0.15), 0 0 0 1px rgba(0,0,0,0.15)",
		"sapUiContentShadow3": "0 1.25rem 5rem 0 rgba(0,0,0,0.15), 0 0 0 1px rgba(0,0,0,0.15)",
		"sapUiContentTextShadow": "0 0 0.125rem #fff",
		"sapUiContentHeaderShadow": "0 0.125rem 0 0 #7d8890, inset 0 -0.125rem 0 0 #939ca3",
		"sapUiContentSearchHighlightColor": "#d4f7db",
		"sapUiContentHelpColor": "#3f8600",
		"sapUiContentLabelColor": "#666",
		"sapUiContentDisabledTextColor": "rgba(51,51,51,0.5)",
		"sapUiContentDisabledOpacity": "0.5",
		"sapUiContentContrastTextThreshold": "0.65",
		"sapUiContentContrastTextColor": "#fff",
		"sapUiContentForegroundColor": "#e5e5e5",
		"sapUiContentForegroundBorderColor": "#bfbfbf",
		"sapUiContentForegroundTextColor": "#333",
		"sapUiContentBadgeBackground": "#c14646",
		"sapUiContentDragAndDropActiveColor": "#0070b1",
		"sapUiShellBackground": "#686b6d",
		"sapUiShellBackgroundImage": "url('../../../../../../Base/baseLib/open_space_belize/img/misc/sapShell_BackgroundImage.jpeg')",
		"sapUiShellBackgroundImageOpacity": "1.0",
		"sapUiShellBackgroundImageRepeat": "false",
		"sapUiShellBackgroundGradient": "url('../../../../../../Base/baseLib/open_space_belize/img/misc/sapShell_BackgroundImage.jpeg')",
		"sapUiShellBorderColor": "transparent",
		"sapUiShellTextColor": "#000",
		"sapUiShellInteractiveTextColor": "#000",
		"sapUiShellInteractiveBorderColor": "#bfbfbf",
		"sapUiShellGroupTitleTextColor": "#333333",
		"sapUiShellHoverBackground": "#000",
		"sapUiShellActiveBackground": "#000000",
		"sapUiShellActiveTextColor": "#fff",
		"sapUiShellSelectedBackground": "#000000",
		"sapUiShellSelectedTextColor": "#fff",
		"sapUiShellSelectedHoverBackground": "#000000",
		"sapUiShellFavicon": "none",
		"sapUiShellNavigationBackground": "transparent",
		"sapUiShellNavigationSelectedColor": "#000",
		"sapUiShellNavigationSelectedTextColor": "#000",
		"sapUiShellNavigationTextColor": "#333333",
		"sapUiShellShadow": "0 0.125rem 0 0 #5c5e60",
		"sapUiButtonBorderWidth": ".0625rem",
		"sapUiButtonBorderCornerRadius": ".1875rem",
		"sapUiButtonBackground": "#f7f7f7",
		"sapUiButtonBorderColor": "#ababab",
		"sapUiButtonTextColor": "#000",
		"sapUiButtonDisabledBackground": "lime",
		"sapUiButtonDisabledBorderColor": "lime",
		"sapUiButtonDisabledTextColor": "lime",
		"sapUiButtonHoverBackground": "#eaeaea",
		"sapUiButtonHoverBorderColor": "#ababab",
		"sapUiButtonHoverTextColor": "#000",
		"sapUiButtonIconColor": "#000",
		"sapUiButtonActiveBackground": "#000000",
		"sapUiButtonActiveBorderColor": "#000000",
		"sapUiButtonActiveTextColor": "#fff",
		"sapUiButtonEmphasizedBackground": "#1a1a1a",
		"sapUiButtonEmphasizedBorderColor": "#0d0d0d",
		"sapUiButtonEmphasizedTextColor": "#fff",
		"sapUiButtonEmphasizedHoverBackground": "#0d0d0d",
		"sapUiButtonEmphasizedHoverBorderColor": "#0d0d0d",
		"sapUiButtonEmphasizedHoverTextColor": "#fff",
		"sapUiButtonEmphasizedActiveBackground": "#000000",
		"sapUiButtonEmphasizedActiveBorderColor": "#000000",
		"sapUiButtonEmphasizedTextShadow": "rgba(0,0,0,0.5)",
		"sapUiButtonEmphasizedFontWeight": "regular",
		"sapUiButtonRejectBackground": "#f7f7f7",
		"sapUiButtonRejectBorderColor": "#bb0000",
		"sapUiButtonRejectHoverBackground": "#eaeaea",
		"sapUiButtonRejectHoverBorderColor": "#bb0000",
		"sapUiButtonRejectHoverTextColor": "#b00",
		"sapUiButtonRejectActiveBackground": "#bb0000",
		"sapUiButtonRejectActiveBorderColor": "#bb0000",
		"sapUiButtonRejectTextColor": "#b00",
		"sapUiButtonAcceptBackground": "#f7f7f7",
		"sapUiButtonAcceptBorderColor": "#2b7c2b",
		"sapUiButtonAcceptHoverBackground": "#eaeaea",
		"sapUiButtonAcceptHoverBorderColor": "#2b7c2b",
		"sapUiButtonAcceptHoverTextColor": "#2b7c2b",
		"sapUiButtonAcceptActiveBackground": "#2b7c2b",
		"sapUiButtonAcceptActiveBorderColor": "#2b7c2b",
		"sapUiButtonAcceptTextColor": "#2b7c2b",
		"sapUiButtonLiteBackground": "transparent",
		"sapUiButtonLiteBorderColor": "transparent",
		"sapUiButtonLiteTextColor": "#000",
		"sapUiButtonLiteHoverBackground": "rgba(178,178,178,0.5)",
		"sapUiButtonLiteHoverBorderColor": "transparent",
		"sapUiButtonLiteHoverTextColor": "#000",
		"sapUiButtonLiteActiveBackground": "#000000",
		"sapUiButtonLiteActiveBorderColor": "#000000",
		"sapUiButtonSelectedBackground": "#000",
		"sapUiButtonSelectedBorderColor": "#000",
		"sapUiButtonSelectedTextColor": "#fff",
		"sapUiButtonSelectedHoverBackground": "#1a1a1a",
		"sapUiButtonSelectedHoverBorderColor": "#1a1a1a",
		"sapUiFieldBorderWidth": ".0625rem",
		"sapUiFieldBorderCornerRadius": "0",
		"sapUiFieldBackground": "#ffffff",
		"sapUiFieldBorderColor": "#bfbfbf",
		"sapUiFieldTextColor": "#000",
		"sapUiFieldPlaceholderTextColor": "#757575",
		"sapUiFieldHelpBackground": "#ffffff",
		"sapUiFieldHoverBackground": "#ffffff",
		"sapUiFieldHoverBorderColor": "#000000",
		"sapUiFieldHoverHelpBackground": "#000000",
		"sapUiFieldActiveBorderColor": "#000000",
		"sapUiFieldFocusBackground": "#ffffff",
		"sapUiFieldFocusBorderColor": "#bfbfbf",
		"sapUiFieldFocusHelpBackground": "#ffffff",
		"sapUiFieldReadOnlyBackground": "rgba(242,242,242,0.5)",
		"sapUiFieldReadOnlyBorderColor": "#ccc",
		"sapUiFieldReadOnlyHelpBackground": "rgba(242,242,242,0.5)",
		"sapUiFieldDisabledBackground": "lime",
		"sapUiFieldDisabledBorderColor": "lime",
		"sapUiFieldDisabledTextColor": "rgba(0,0,0,0.5)",
		"sapUiFieldDisabledHelpBackground": "lime",
		"sapUiFieldRequiredColor": "#c14646",
		"sapUiFieldInvalidColor": "#e00",
		"sapUiFieldInvalidBackground": "#ffffff",
		"sapUiFieldWarningColor": "#f9a429",
		"sapUiFieldWarningBackground": "#ffffff",
		"sapUiFieldSuccessColor": "#38a238",
		"sapUiFieldSuccessBackground": "#ffffff",
		"sapUiFieldInformationColor": "#427cac",
		"sapUiFieldInformationBackground": "#ffffff",
		"sapUiGroupTitleBackground": "transparent",
		"sapUiGroupTitleBorderColor": "#ccc",
		"sapUiGroupTitleTextColor": "#333",
		"sapUiGroupContentBackground": "#fff",
		"sapUiGroupContentBorderColor": "#ebebeb",
		"sapUiGroupBorderWidth": ".0625rem",
		"sapUiGroupFooterBackground": "transparent",
		"sapUiToolbarBackground": "transparent",
		"sapUiToolbarSeparatorColor": "rgba(63,81,97,0.2)",
		"sapUiListHeaderBackground": "#f7f7f7",
		"sapUiListHeaderBorderColor": "#e5e5e5",
		"sapUiListHeaderTextColor": "#333",
		"sapUiListBorderColor": "#e5e5e5",
		"sapUiListBorderWidth": ".0625rem",
		"sapUiListTextColor": "#333",
		"sapUiListActiveBackground": "#000000",
		"sapUiListActiveTextColor": "#fff",
		"sapUiListHighlightColor": "#000000",
		"sapUiListSelectionBackgroundColor": "#787878",
		"sapUiListSelectionBorderColor": "#e5e5e5",
		"sapUiListHoverSelectionBackground": "#707070",
		"sapUiListBackground": "#ffffff",
		"sapUiListHoverBackground": "#f0f0f0",
		"sapUiListGroupHeaderBackground": "#ffffff",
		"sapUiListGroupHeaderBorderColor": "#ccc",
		"sapUiListGroupHeaderTextColor": "#147575",
		"sapUiListFooterBackground": "#677178",
		"sapUiListFooterTextColor": "#fff",
		"sapUiListTableGroupHeaderBackground": "#f2f2f2",
		"sapUiListTableGroupHeaderBorderColor": "#ccc",
		"sapUiListTableGroupHeaderTextColor": "#147575",
		"sapUiListTableFooterBorder": "#ccc",
		"sapUiListTableFixedBorderColor": "#999",
		"sapUiScrollBarFaceColor": "#b2b2b2",
		"sapUiScrollBarTrackColor": "#fff",
		"sapUiScrollBarBorderColor": "#b2b2b2",
		"sapUiScrollBarSymbolColor": "#000",
		"sapUiScrollBarDimension": ".7rem",
		"sapUiScrollBarHoverFaceColor": "#aaa",
		"sapUiPageHeaderBackground": "#7d8890",
		"sapUiPageHeaderBorderColor": "#69747b",
		"sapUiPageHeaderTextColor": "#fff",
		"sapUiPageFooterBackground": "#ffffff",
		"sapUiPageFooterBorderColor": "#ebebeb",
		"sapUiPageFooterTextColor": "#333",
		"sapUiInfobarBackground": "#168282",
		"sapUiInfobarHoverBackground": "#147575",
		"sapUiInfobarActiveBackground": "#000000",
		"sapUiObjectHeaderBackground": "#7d8890",
		"sapUiObjectHeaderBorderColor": "#939ca3",
		"sapUiBlockLayerBackground": "#000",
		"sapUiTileBackground": "#ffffff",
		"sapUiTileHoverBackground": "#f7f7f7",
		"sapUiTileActiveBackground": "#f7f7f7",
		"sapUiTileBorderColor": "transparent",
		"sapUiTileTitleTextColor": "#333",
		"sapUiTileTextColor": "#666",
		"sapUiTileIconColor": "#575757",
		"sapUiChart1": "#5899da",
		"sapUiChart2": "#e8743b",
		"sapUiChart3": "#19a979",
		"sapUiChart4": "#ed4a7b",
		"sapUiChart5": "#945ecf",
		"sapUiChart6": "#13a4b4",
		"sapUiChart7": "#525df4",
		"sapUiChart8": "#bf399e",
		"sapUiChart9": "#6c8893",
		"sapUiChart10": "#ee6868",
		"sapUiChart11": "#2f6497",
		"sapUiChartBad": "#dc0d0e",
		"sapUiChartCritical": "#de890d",
		"sapUiChartGood": "#3fa45b",
		"sapUiChartNeutral": "#848f94",
		"sapUiChartSequence1": "#5899da",
		"sapUiChartSequence2": "#e8743b",
		"sapUiChartSequence3": "#19a979",
		"sapUiChartSequence4": "#ed4a7b",
		"sapUiChartSequence5": "#945ecf",
		"sapUiChartSequence6": "#13a4b4",
		"sapUiChartSequence7": "#525df4",
		"sapUiChartSequence8": "#bf399e",
		"sapUiChartSequence9": "#6c8893",
		"sapUiChartSequence10": "#ee6868",
		"sapUiChartSequence11": "#2f6497",
		"sapUiChartSequenceNeutral": "#848f94",
		"sapUiAccent1": "#e09d00",
		"sapUiAccent2": "#e6600d",
		"sapUiAccent3": "#c14646",
		"sapUiAccent4": "#ab218e",
		"sapUiAccent5": "#678bc7",
		"sapUiAccent6": "#0092d1",
		"sapUiAccent7": "#1a9898",
		"sapUiAccent8": "#759421",
		"sapUiAccent9": "#925ace",
		"sapUiAccent10": "#647987",
		"sapUiLegend1": "#ad7900",
		"sapUiLegend2": "#dc5c0c",
		"sapUiLegend3": "#c14646",
		"sapUiLegend4": "#853808",
		"sapUiLegend5": "#da3fb9",
		"sapUiLegend6": "#008bc7",
		"sapUiLegend7": "#198f8f",
		"sapUiLegend8": "#6e8c1f",
		"sapUiLegend9": "#648796",
		"sapUiLegend10": "#80196a",
		"sapUiLegend11": "#6f5925",
		"sapUiLegend12": "#b64600",
		"sapUiLegend13": "#d61818",
		"sapUiLegend14": "#976c52",
		"sapUiLegend15": "#73596d",
		"sapUiLegend16": "#5d759e",
		"sapUiLegend17": "#466c6c",
		"sapUiLegend18": "#626b4a",
		"sapUiLegend19": "#284d5d",
		"sapUiLegend20": "#1851b0",
		"sapUiErrorBG": "#ffe4e4",
		"sapUiWarningBG": "#fef0db",
		"sapUiSuccessBG": "#e4f5e4",
		"sapUiInformationBG": "#ebf2f7",
		"sapUiNeutralBG": "#f4f5f6",
		"sapUiErrorBorder": "#e00",
		"sapUiWarningBorder": "#f9a429",
		"sapUiSuccessBorder": "#38a238",
		"sapUiInformationBorder": "#427cac",
		"sapUiNeutralBorder": "#5e696e",
		"sapUiNegativeElement": "#bb0000",
		"sapUiCriticalElement": "#e78c07",
		"sapUiPositiveElement": "#2b7c2b",
		"sapUiInformativeElement": "#427cac",
		"sapUiNeutralElement": "#5e696e",
		"sapUiNegativeText": "#bb0000",
		"sapUiCriticalText": "#e78c07",
		"sapUiPositiveText": "#2b7c2b",
		"sapUiInformativeText": "#427cac",
		"sapUiNeutralText": "#5e696e",
		"sapUiNegative": "#bb0000",
		"sapUiCritical": "#e78c07",
		"sapUiPositive": "#2b7c2b",
		"sapUiInformative": "#427cac",
		"sapUiNeutral": "#5e696e",
		"sapUiErrorColor": "#e00",
		"sapUiWarningColor": "#f9a429",
		"sapUiSuccessColor": "#38a238",
		"sapUiIndication1": "#880000",
		"sapUiIndication2": "#bb0000",
		"sapUiIndication3": "#e78c07",
		"sapUiIndication4": "#2b7c2b",
		"sapUiIndication5": "#427cac",
		"sapUiFontCondensedFamily": "'Arial Narrow', HelveticaNeue-CondensedBold, Arial, sans-serif",
		"sapUiFontHeaderWeight": "normal",
		"sapUiTranslucentBGOpacity": "0",
		"sapMPlatformDependent": "false",
		"sapUiDesktopFontFamily": "\"72\", \"72full\", Arial, Helvetica, sans-serif",
		"sapUiDesktopFontSize": "12px",
		"sapUiFontLargeSize": "13px",
		"sapUiFontSmallSize": "11px",
		"sapUiFontHeader1Size": "26px",
		"sapUiFontHeader2Size": "20px",
		"sapUiFontHeader3Size": "18px",
		"sapUiFontHeader4Size": "16px",
		"sapUiFontHeader5Size": "14px",
		"sapUiFontHeader6Size": "13px",
		"sapUiLineHeight": "18px",
		"sapUiChartLabelHoverColor": "#eaeaea",
		"sapUiChartLabelPressedColor": "#ccc",
		"sapUiChartCategoryAxisLabelFontColor": "#333",
		"sapUiChartValueAxisLabelFontColor": "#707070",
		"sapUiChartCategoryAxisLabelFontSize": ".75rem",
		"sapUiChartValueAxisLabelFontSize": ".75rem",
		"sapUiChartCategoryAxisLineColor": "#ccc",
		"sapUiChartValueAxisLineColor": "#ccc",
		"sapUiChartCategoryAxisTickColor": "#ccc",
		"sapUiChartValueAxisTickColor": "#ccc",
		"sapUiChartBackgroundColor": "transparent",
		"sapUiChartLabelFontWeight": "normal",
		"sapUiChartLegendLabelFontColor": "#333",
		"sapUiChartLegendTitleFontColor": "#333",
		"sapUiChartLegendTitleFontSize": ".875rem",
		"sapUiChartLegendLabelFontSize": ".75rem",
		"sapUiChartPaletteUndefinedColor": "#000",
		"sapUiChartGridlineColor": "#e5e5e5",
		"sapUiChartReferenceLineColor": "#333",
		"sapUiChartDataLabelFontColor": "#000",
		"sapUiChartReferenceLineLabelColor": "#fff",
		"sapUiChartDataLabelFontSize": ".75rem",
		"sapUiChartPopoverDataItemFontColor": "#000",
		"sapUiChartPopoverGroupFontColor": "#333",
		"sapUiChartPopoverDataItemFontSize": ".875rem",
		"sapUiChartPopoverGroupFontSize": ".875rem",
		"sapUiChartPopoverGroupFontWeight": "bold",
		"sapUiChartScrollBarThumbColor": "#b2b2b2",
		"sapUiChartScrollBarTrackColor": "#fff",
		"sapUiChartScrollBarThumbHoverColor": "#aaa",
		"sapUiChartMainTitleFontColor": "#333",
		"sapUiChartAxisTitleFontColor": "#333",
		"sapUiChartMainTitleFontSize": "1rem",
		"sapUiChartAxisTitleFontSize": ".75rem",
		"sapUiChartTitleFontWeight": "bold",
		"sapUiChartAxisTitleFontWeight": "regular",
		"sapUiChartLightText": "#707070",
		"sapUiChartZeroAxisColor": "#666",
		"sapUiChartDataPointBorderColor": "#fff",
		"sapUiChartDataPointBorderHoverSelectedColor": "#666",
		"sapUiChartDataPointNotSelectedBackgroundOpacity": "0.6",
		"sapUiChartValueAxisLineOpacity": "0",
		"sapUiChartCategoryAxisLabelFontHoverColor": "#333",
		"sapUiChartCategoryAxisLabelFontPressedColor": "#333",
		"sapUiChartTargetColor": "#333",
		"sapUiChartTargetShadowColor": "#fff",
		"sapUiChartBubbleBGOpacity": "0.8",
		"sapUiChartScrollbarBorderColor": "#f2f2f2",
		"sapUiChartScrollbarBorderSize": "0",
		"sapUiChartScrollbarThumbPadding": "0",
		"sapUiChartNegativeLargeText": "#dc0d0e",
		"sapUiChartCriticalLargeText": "#de890d",
		"sapUiChartPositiveLargeText": "#3fa45b",
		"sapUiChartNeutralLargeText": "#6a757b",
		"sapUiChartDataPointBG": "#d6dadb",
		"sapUiChartDataPointBGBorderColor": "#d6dadb",
		"sapUiChartDataLineColorWithBG": "#333",
		"sapUiChartDataLineColor": "#333",
		"sapUiChartRadialRemainingCircle": "#e3e6e7",
		"sapUiChartRadialRemainingCircleBorderColor": "#e3e6e7",
		"sapUiChartRadialBG": "#fff",
		"sapUiChartLegendHoverBackground": "#f0f0f0",
		"sapUiChartLegendSelectionBackground": "#787878",
		"sapUiChartLegendSelectionHoverBackground": "#707070",
		"sapUiChartPaletteQualitativeHue1": "#5899da",
		"sapUiChartPaletteQualitativeHue2": "#e8743b",
		"sapUiChartPaletteQualitativeHue3": "#19a979",
		"sapUiChartPaletteQualitativeHue4": "#ed4a7b",
		"sapUiChartPaletteQualitativeHue5": "#945ecf",
		"sapUiChartPaletteQualitativeHue6": "#13a4b4",
		"sapUiChartPaletteQualitativeHue7": "#525df4",
		"sapUiChartPaletteQualitativeHue8": "#bf399e",
		"sapUiChartPaletteQualitativeHue9": "#6c8893",
		"sapUiChartPaletteQualitativeHue10": "#ee6868",
		"sapUiChartPaletteQualitativeHue11": "#2f6497",
		"sapUiChartPaletteQualitativeHue12": "#1866b4",
		"sapUiChartPaletteQualitativeHue13": "#cc4300",
		"sapUiChartPaletteQualitativeHue14": "#03724e",
		"sapUiChartPaletteQualitativeHue15": "#d70947",
		"sapUiChartPaletteQualitativeHue16": "#7629cc",
		"sapUiChartPaletteQualitativeHue17": "#087682",
		"sapUiChartPaletteQualitativeHue18": "#2631d4",
		"sapUiChartPaletteQualitativeHue19": "#921473",
		"sapUiChartPaletteQualitativeHue20": "#3c6372",
		"sapUiChartPaletteQualitativeHue21": "#d52f2f",
		"sapUiChartPaletteQualitativeHue22": "#144a7f",
		"sapUiChartPaletteSemanticBadLight3": "#f99494",
		"sapUiChartPaletteSemanticBadLight2": "#f66364",
		"sapUiChartPaletteSemanticBadLight1": "#f33334",
		"sapUiChartPaletteSemanticBad": "#dc0d0e",
		"sapUiChartPaletteSemanticBadDark1": "#b90c0d",
		"sapUiChartPaletteSemanticBadDark2": "#93090a",
		"sapUiChartPaletteSemanticCriticalLight3": "#f8cc8c",
		"sapUiChartPaletteSemanticCriticalLight2": "#f5b04d",
		"sapUiChartPaletteSemanticCriticalLight1": "#f29b1d",
		"sapUiChartPaletteSemanticCritical": "#de890d",
		"sapUiChartPaletteSemanticCriticalDark1": "#c67a0c",
		"sapUiChartPaletteSemanticCriticalDark2": "#a4650a",
		"sapUiChartPaletteSemanticGoodLight3": "#a1dbb1",
		"sapUiChartPaletteSemanticGoodLight2": "#71c989",
		"sapUiChartPaletteSemanticGoodLight1": "#4cba6b",
		"sapUiChartPaletteSemanticGood": "#3fa45b",
		"sapUiChartPaletteSemanticGoodDark1": "#358a4d",
		"sapUiChartPaletteSemanticGoodDark2": "#2a6d3c",
		"sapUiChartPaletteSemanticNeutralLight3": "#d6dadb",
		"sapUiChartPaletteSemanticNeutralLight2": "#bac1c4",
		"sapUiChartPaletteSemanticNeutralLight1": "#9ea8ad",
		"sapUiChartPaletteSemanticNeutral": "#848f94",
		"sapUiChartPaletteSemanticNeutralDark1": "#6a757b",
		"sapUiChartPaletteSemanticNeutralDark2": "#596368",
		"sapUiChartPaletteSequentialHue1Light3": "#b3d4f5",
		"sapUiChartPaletteSequentialHue1Light2": "#93bfeb",
		"sapUiChartPaletteSequentialHue1Light1": "#74abe2",
		"sapUiChartPaletteSequentialHue1": "#5899da",
		"sapUiChartPaletteSequentialHue1Dark1": "#367dc4",
		"sapUiChartPaletteSequentialHue1Dark2": "#1866b4",
		"sapUiChartPaletteSequentialHue2Light3": "#ffb08a",
		"sapUiChartPaletteSequentialHue2Light2": "#f3b89b",
		"sapUiChartPaletteSequentialHue2Light1": "#f08957",
		"sapUiChartPaletteSequentialHue2": "#e8743b",
		"sapUiChartPaletteSequentialHue2Dark1": "#da5a1b",
		"sapUiChartPaletteSequentialHue2Dark2": "#cc4300",
		"sapUiChartPaletteSequentialHue3Light3": "#8fd1bb",
		"sapUiChartPaletteSequentialHue3Light2": "#66c2a3",
		"sapUiChartPaletteSequentialHue3Light1": "#3fb68f",
		"sapUiChartPaletteSequentialHue3": "#19a979",
		"sapUiChartPaletteSequentialHue3Dark1": "#0d8c62",
		"sapUiChartPaletteSequentialHue3Dark2": "#03724e",
		"sapUiChartPaletteSequentialHue4Light3": "#f8b4c9",
		"sapUiChartPaletteSequentialHue4Light2": "#f490ae",
		"sapUiChartPaletteSequentialHue4Light1": "#f06a93",
		"sapUiChartPaletteSequentialHue4": "#ed4a7b",
		"sapUiChartPaletteSequentialHue4Dark1": "#e32b62",
		"sapUiChartPaletteSequentialHue4Dark2": "#d70947",
		"sapUiChartPaletteSequentialHue5Light3": "#d3bdeb",
		"sapUiChartPaletteSequentialHue5Light2": "#be9de2",
		"sapUiChartPaletteSequentialHue5Light1": "#a97dd8",
		"sapUiChartPaletteSequentialHue5": "#945ecf",
		"sapUiChartPaletteSequentialHue5Dark1": "#8746ce",
		"sapUiChartPaletteSequentialHue5Dark2": "#7629cc",
		"sapUiChartPaletteSequentialHue6Light3": "#81d1da",
		"sapUiChartPaletteSequentialHue6Light2": "#5ac2ce",
		"sapUiChartPaletteSequentialHue6Light1": "#39b4c1",
		"sapUiChartPaletteSequentialHue6": "#13a4b4",
		"sapUiChartPaletteSequentialHue6Dark1": "#0d8d9c",
		"sapUiChartPaletteSequentialHue6Dark2": "#087682",
		"sapUiChartPaletteSequentialHue7Light3": "#99a0f9",
		"sapUiChartPaletteSequentialHue7Light2": "#828af7",
		"sapUiChartPaletteSequentialHue7Light1": "#6973f6",
		"sapUiChartPaletteSequentialHue7": "#525df4",
		"sapUiChartPaletteSequentialHue7Dark1": "#3945e4",
		"sapUiChartPaletteSequentialHue7Dark2": "#2631d4",
		"sapUiChartPaletteSequentialHue8Light3": "#e598d2",
		"sapUiChartPaletteSequentialHue8Light2": "#d877c0",
		"sapUiChartPaletteSequentialHue8Light1": "#cd59b1",
		"sapUiChartPaletteSequentialHue8": "#bf399e",
		"sapUiChartPaletteSequentialHue8Dark1": "#a92689",
		"sapUiChartPaletteSequentialHue8Dark2": "#921473",
		"sapUiChartPaletteSequentialHue9Light3": "#d1d9db",
		"sapUiChartPaletteSequentialHue9Light2": "#adbcc3",
		"sapUiChartPaletteSequentialHue9Light1": "#8ca2ab",
		"sapUiChartPaletteSequentialHue9": "#6c8893",
		"sapUiChartPaletteSequentialHue9Dark1": "#547582",
		"sapUiChartPaletteSequentialHue9Dark2": "#3c6372",
		"sapUiChartPaletteSequentialHue10Light3": "#fccaca",
		"sapUiChartPaletteSequentialHue10Light2": "#f8a6a6",
		"sapUiChartPaletteSequentialHue10Light1": "#f38787",
		"sapUiChartPaletteSequentialHue10": "#ee6868",
		"sapUiChartPaletteSequentialHue10Dark1": "#e14c4c",
		"sapUiChartPaletteSequentialHue10Dark2": "#d52f2f",
		"sapUiChartPaletteSequentialHue11Light3": "#85a1bb",
		"sapUiChartPaletteSequentialHue11Light2": "#698daf",
		"sapUiChartPaletteSequentialHue11Light1": "#4d79a2",
		"sapUiChartPaletteSequentialHue11": "#2f6497",
		"sapUiChartPaletteSequentialHue11Dark1": "#245a8e",
		"sapUiChartPaletteSequentialHue11Dark2": "#144a7f",
		"sapUiChartPaletteSequentialNeutralLight3": "#d6dadb",
		"sapUiChartPaletteSequentialNeutralLight2": "#bac1c4",
		"sapUiChartPaletteSequentialNeutralLight1": "#9ea8ad",
		"sapUiChartPaletteSequentialNeutral": "#848f94",
		"sapUiChartPaletteSequentialNeutralDark1": "#6a757b",
		"sapUiChartPaletteSequentialNeutralDark2": "#596368",
		"sapUiChartPaletteNoSemDiv1Light3": "#f3dec9",
		"sapUiChartPaletteNoSemDiv1Light2": "#e3cbb3",
		"sapUiChartPaletteNoSemDiv1Light1": "#c8ab8e",
		"sapUiChartPaletteNoSemDiv1": "#b08e6d",
		"sapUiChartPaletteNoSemDiv1Dark1": "#8e6c4b",
		"sapUiChartPaletteNoSemDiv1Dark2": "#754f2a",
		"sapUiChartPaletteMidArea": "#f2f2f2",
		"sapUiChoroplethBG": "#f7f7f8",
		"sapUiChoroplethRegionBorder": "#fff",
		"sapUiChoroplethRegionBG": "#bac1c4",
		"sapUiMapLegendBG": "#fff",
		"sapUiMapLegendBorderColor": "#ccc",
		"sapUiShellHoverToggleBackground": "#000000",
		"sapUiShellContainerBackground": "#919496",
		"sapUiShellAltContainerBackground": "#202426",
		"sapUiShellGroupTextColor": "#000",
		"sapUiUx3ShellHeaderColor": "transparent",
		"sapUiUx3ShellBackgroundColor": "#eff4f9",
		"sapUiUx3ShellHoverColor": "#787878",
		"sapUiUx3ShellGradientBottom": "transparent",
		"sapUiUx3ShellGradientTop": "rgba(0,0,0,0.03)",
		"sapUiUx3ShellToolPaletteIconFontColor": "#889eb1",
		"sapUiUx3ExactLstExpandOffset": "-1 -2",
		"sapUiUx3ExactLstRootExpandOffset": "0 3",
		"sapUiUx3ExactLstContentTop": "25px",
		"sapUiNotificationBarBG": "rgba(51,51,51,0.98)",
		"sapUiNotifierSeparator": "#000",
		"sapUiNotifierSeparatorWidth": "1px",
		"sapUiNotificationBarBorder": "#666",
		"sapUiUx3ToolPopupInverted": "false",
		"sapUiUx3ToolPopupArrowRightMarginCorrection": "-1px",
		"sapUiUx3ToolPopupShadow": "0px 6px 12px 0px rgba(0,0,0,0.3)",
		"sapUiCalloutShadow": "0px 6px 12px 0px rgba(0,0,0,0.3)",
		"sapUiButtonHeaderTextColor": "#000",
		"sapUiButtonHeaderDisabledTextColor": "#000",
		"sapUiButtonFooterTextColor": "#000",
		"sapUiButtonFooterHoverBackground": "rgba(178,178,178,0.5)",
		"sapUiButtonActionSelectBackground": "#ffffff",
		"sapUiButtonActionSelectBorderColor": "#e5e5e5",
		"sapUiButtonLiteActionSelectHoverBackground": "#f0f0f0",
		"sapUiToggleButtonPressedBackground": "#000",
		"sapUiToggleButtonPressedBorderColor": "#000",
		"sapUiToggleButtonPressedTextColor": "#fff",
		"sapUiToggleButtonPressedHoverBackground": "#1a1a1a",
		"sapUiToggleButtonPressedHoverBorderColor": "#1a1a1a",
		"sapUiSegmentedButtonBackground": "#fff",
		"sapUiSegmentedButtonBorderColor": "#bfbfbf",
		"sapUiSegmentedButtonTextColor": "#000",
		"sapUiSegmentedButtonHoverBackground": "#eaeaea",
		"sapUiSegmentedButtonActiveBackground": "#000000",
		"sapUiSegmentedButtonActiveTextColor": "#fff",
		"sapUiSegmentedButtonSelectedBackground": "#000",
		"sapUiSegmentedButtonSelectedTextColor": "#fff",
		"sapUiSegmentedButtonSelectedHoverBackground": "#1a1a1a",
		"sapUiSegmentedButtonSelectedHoverBorderColor": "#1a1a1a",
		"sapUiSegmentedButtonIconColor": "#000",
		"sapUiSegmentedButtonActiveIconColor": "#fff",
		"sapUiSegmentedButtonSelectedIconColor": "#fff",
		"sapUiSegmentedButtonFooterBorderColor": "#bfbfbf",
		"sapUiSegmentedButtonFooterHoverBackground": "#eaeaea",
		"sapUiFieldActiveBackground": "#000000",
		"sapUiFieldActiveTextColor": "#fff",
		"sapUiListVerticalBorderColor": "#ddd",
		"sapUiListSelectionHoverBackground": "#707070",
		"sapUiListTableFixedBorder": "#999",
		"sapUiListTableTextSize": "0.875rem",
		"sapUiListTableIconSize": "1rem",
		"sapUiCalendarColorToday": "#ab218e",
		"sapUiDragAndDropColor": "#878787",
		"sapUiDragAndDropBackground": "#fff",
		"sapUiDragAndDropBorderColor": "#bfbfbf",
		"sapUiDragAndDropActiveColor": "#0070b1",
		"sapUiDragAndDropActiveBackground": "rgba(0,112,177,0.05)",
		"sapUiDragAndDropActiveBorderColor": "#0070b1",
		"sapUiShadowLevel0": "0 0 0 1px rgba(0,0,0,0.15)",
		"sapUiShadowLevel1": "0 0.125rem 0.5rem 0 rgba(0,0,0,0.15), 0 0 0 1px rgba(0,0,0,0.15)",
		"sapUiShadowLevel2": "0 0.625rem 1.875rem 0 rgba(0,0,0,0.15), 0 0 0 1px rgba(0,0,0,0.15)",
		"sapUiShadowLevel3": "0 1.25rem 5rem 0 rgba(0,0,0,0.15), 0 0 0 1px rgba(0,0,0,0.15)",
		"sapUiShadowText": "0 0 0.125rem #fff",
		"sapUiShadowHeader": "0 0.125rem 0 0 #7d8890, inset 0 -0.125rem 0 0 #939ca3",
		"sapUiUx3ShellHeaderImageURL": "",
		"sapUiUx3ShellApplicationImageURL": "url('../../../../../../Base/baseLib/open_space_belize/img/misc/sapCompanyLogo.png')",
		"sapUiPurple": "purple",
		"sapUiOrange": "orange",
		"sapUiGreen": "green",
		"sapUiBlue": "blue",
		"sapUiRed": "red",
		"sapUiYellow": "yellow",
		"sapUiBase": "#000",
		"sapUiBaseBorder": "#000",
		"sapUiBaseLine": "#000",
		"sapUiWhite": "#FFFFFF",
		"sapUiWhiteBG": "#fff",
		"sapUiExtraLightBG": "#fafafa",
		"sapUiLightBG": "lightgray",
		"sapUiMediumBG": "gray",
		"sapUiDarkBG": "darkgray",
		"sapUiDeepBG": "black",
		"sapUiBlackBG": "#000000",
		"sapUiHoverBG": "grey",
		"sapUiMediumAltBG": "grey",
		"sapUiDarkAltBG": "darkgrey",
		"sapUiButtonStandardBG": "#fafafa",
		"sapUiButtonEmphasizedBG": "yellow",
		"sapUiButtonNegativeBG": "red",
		"sapUiButtonPositiveBG": "green",
		"sapUiReadOnlyBG": "grey",
		"sapUiExtraLightText": "lightgray",
		"sapUiLightText": "lightgray",
		"sapUiMediumText": "grey",
		"sapUiDarkText": "darkgrey",
		"sapUiDeepText": "black",
		"sapUiText": "#333333",
		"sapUiTextInverted": "#fff",
		"sapUiWhiteBorder": "#fff",
		"sapUiExtraLightBorder": "lightgrey",
		"sapUiLightBorder": "grey",
		"sapUiMediumBorder": "#000",
		"sapUiDarkBorder": "#000",
		"sapUiBlackBorder": "#000",
		"sapUiElement": "lightgrey",
		"sapUiInvertedElement": "#ffffff",
		"sapUiLightLine": "lightgrey",
		"sapUiMediumLine": "grey",
		"sapUiEmphasizedLine": "#000000",
		"sapUiDarkLine": "darkgrey",
		"sapUiLightShadowTint": "#ffffff",
		"sapUiDarkShadowTint": "#000000",
		"sapUiFocus": "#000000",
		"sapUiInvertedFocus": "#ffffff",
		"sapUiTableRowBG": "#FFFFFF",
		"sapUiTableRowAlternatingBG": "#FFFFFF",
		"sapUiTableRowSelectionBG": "#000000",
		"sapUiTableRowSelectionReadOnlyBG": "#000000",
		"sapUiTableRowHoverBG": "grey",
		"sapUiListBG": "#f7f7f7",
		"sapUiTextColor": "green",
		"sapUiTextTitleColor": "green",
		"sapUiTextSelectionColor": "green",
		"sapUiTextDisabled": "#ccc",
		"sapUiTextSelection": "#fff",
		"sapUiTextfieldBackground": "#FFFFFF",
		"sapUiFontMonospaceFamily": "Lucida Console",
		"sapUiUx3ShellSideBarBaseWidth": "40px",
		"sapUiUx3ShellPaneOverflowButtonHeight": "120px",
		"sapUiUx3ExactLstCollapseWidth": "24px",
		"sapUiUx3ExactLstHeaderHeight": "25px",
		"sapUiNotificationBarBG_IE": "grey",
		"sapUiNotifierHoverColor": "#000000",
		"sapUiNotificationText": "#fff",
		"sapUiNotificationTimestamp": "#ababab",
		"sapUiNotificationBarCalloutBorder": "rgba(128,128,128,0)",
		"sapUiNotificationBarCalloutBorder_IE": "grey",
		"sapUiNotificationBarCalloutArr": "rgba(51,51,51,0.98)",
		"sapUiNotificationBarHeight": "40px",
		"sapUiNotificationBarHeightMinimized": "0px",
		"sapUiNotificationBarHeightMaximized": "40%",
		"sapUiNotifierWidth": "40px",
		"sapUiRIIconPaddingXS": "1px",
		"sapUiRIIconPaddingS": "0.125rem",
		"sapUiRIIconPaddingM": "0.1875rem",
		"sapUiRIIconPaddingL": "0.25rem",
		"sapUiRIIconPaddingCozy": "0.1875rem",
		"sapUiRIIconPaddingCompact": "0.125rem",
		"sapUiRIIconPaddingCondensed": "0.125rem",
		"sapUiRIIconPaddingDisplayOnly": "0.125rem",
		"sapUiRIIconSizeCozy": "1.375rem",
		"sapUiRIIconSizeCompact": "1rem",
		"sapUiRIIconSizeCondensed": "1rem",
		"sapUiRIIconSizeDisplayOnly": "1rem",
		"sapUiUx3ToolPopupArrowWidth": "13px",
		"sapUiUx3ToolPopupArrowHeight": "24px",
		"sapUiUx3ToolPopupArrowRightMarginCorrectionInverted": "-7px",
		"sapUiUx3TPPaddingBottom": "50px",
		"sapUiButtonEmphasizedDisabledBorderColor": "#0d0d0d",
		"sapUiButtonEmphasizedDisabledBackground": "#1a1a1a",
		"sapUiButtonAcceptDisabledBorderColor": "#2b7c2b",
		"sapUiButtonAcceptDisabledBackground": "#f7f7f7",
		"sapUiButtonRejectDisabledBorderColor": "#bb0000",
		"sapUiButtonRejectDisabledBackground": "#f7f7f7",
		"sapUiToggleButtonPressedDisabledBackground": "#000",
		"sapUiToggleButtonPressedDisabledBorderColor": "#000",
		"sapUiToggleButtonPressedDisabledTextColor": "#bfbfbf",
		"sapUiPositiveBG": "#2b7c2b",
		"sapUiShadowTint": "#000",
		"sapUiShadow": "5px 5px 10px rgba(0,0,0,0.5)",
		"sapUiThemeDesignerCustomCss": "false",
		"sapUiMarginTiny": "0.5rem",
		"sapUiMarginSmall": "1rem",
		"sapUiMarginMedium": "2rem",
		"sapUiMarginLarge": "3rem",
		"sapUiEscapedEmptyString": "",
		"sapUiLightBoxMagnifyingGlassBorder": "none",
		"sapUiLightBoxMagnifyingGlassBackgroundColor": "#0070b1",
		"_sap_ui_core_LocalBusyIndicator_Background": "rgba(250,250,250,0.72)",
		"_sap_ui_core_LocalBusyIndicator_BackgroundIE": "#fafafa",
		"_sap_ui_core_LocalBusyIndicator_Color": "#000000",
		"_sap_ui_core_LocalBusyIndicator_BorderRadius": "100%",
		"_sap_ui_core_LocalBusyIndicator_SizeMedium": "1rem",
		"_sap_ui_core_LocalBusyIndicator_SizeBig": "2rem",
		"_sap_ui_core_media_StdDesktop": "screen and (min-width : 1024px)",
		"_sap_ui_core_media_StdTablet": "screen and (min-width : 600px) and (max-width : 1023px)",
		"_sap_ui_core_media_StdPhone": "screen and (max-width : 599px)",
		"_sap_ui_core_media_3StepL": "screen and (min-width : 960px)",
		"_sap_ui_core_media_3StepM": "screen and (min-width : 520px) and (max-width : 959px)",
		"_sap_ui_core_media_3StepS": "screen and (max-width : 519px)",
		"_sap_ui_core_media_4StepXL": "screen and (min-width : 960px)",
		"_sap_ui_core_media_4StepL": "screen and (min-width : 760px) and (max-width : 959px)",
		"_sap_ui_core_media_4StepM": "screen and (min-width : 520px) and (max-width : 759px)",
		"_sap_ui_core_media_4StepS": "screen and (max-width : 519px)",
		"_sap_ui_core_media_6StepXXL": "screen and (min-width : 960px)",
		"_sap_ui_core_media_6StepXL": "screen and (min-width : 768px) and (max-width : 959px)",
		"_sap_ui_core_media_6StepL": "screen and (min-width : 541px) and (max-width : 767px)",
		"_sap_ui_core_media_6StepM": "screen and (min-width : 400px) and (max-width : 540px)",
		"_sap_ui_core_media_6StepS": "screen and (min-width : 241px) and (max-width : 399px)",
		"_sap_ui_core_media_6StepXS": "screen and (max-width : 240px)",
		"sapBackgroundColorDefault": "#fafafa",
		"sapPrimary1": "#3f5161",
		"sapPrimary2": "#427cac",
		"sapPrimary3": "#eff4f9",
		"sapPrimary4": "#ffffff",
		"sapPrimary5": "#fafafa",
		"sapPrimary6": "#bfbfbf",
		"sapPrimary7": "#333333",
		"sapShell_BackgroundPatternColor": "rgba(255,255,255,0.08)",
		"sapUiShellBackgroundPatternColor": "rgba(255,255,255,0.08)",
		"sapUiPrimary1": "#3f5161",
		"sapUiPrimary2": "#427cac",
		"sapUiPrimary3": "#eff4f9",
		"sapUiPrimary4": "#ffffff",
		"sapUiPrimary5": "#fafafa",
		"sapUiPrimary6": "#bfbfbf",
		"sapUiPrimary7": "#333333"
	},
	"scopes": {
		"sapContrast": {
			"sapBrandColor": "#427cac",
			"sapHighlightColor": "#91c8f6",
			"sapBaseColor": "#3f5161",
			"sapBackgroundColor": "#3f5161",
			"sapTextColor": "#fafafa",
			"sapLinkColor": "#7ed0ff",
			"sapLink_Hover_Color": "#7ed0ff",
			"sapLink_Active_Color": "#7ed0ff",
			"sapLink_Visited_Color": "#7ed0ff",
			"sapLink_InvertedColor": "#0070b1",
			"sapCompanyLogo": "none",
			"sapLegendColor1": "#ffb914",
			"sapLegendColor2": "#f58c4b",
			"sapLegendColor3": "#d88b8b",
			"sapLegendColor4": "#bd8969",
			"sapLegendColor5": "#de54c1",
			"sapLegendColor6": "#00a4eb",
			"sapLegendColor7": "#21c4c4",
			"sapLegendColor8": "#afd645",
			"sapLegendColor9": "#38c3ff",
			"sapLegendColor10": "#b47ea9",
			"sapLegendColor11": "#d1b575",
			"sapLegendColor12": "#ffb98d",
			"sapLegendColor13": "#ffa1a1",
			"sapLegendColor14": "#d5b39e",
			"sapLegendColor15": "#b8adb6",
			"sapLegendColor16": "#c1c8d3",
			"sapLegendColor17": "#a2c2c2",
			"sapLegendColor18": "#aabc78",
			"sapLegendColor19": "#6aafcd",
			"sapLegendColor20": "#a2c0f2",
			"sapErrorBackground": "#500",
			"sapWarningBackground": "#5c3803",
			"sapSuccessBackground": "#174417",
			"sapInformationBackground": "#062e4f",
			"sapNeutralBackground": "#393e41",
			"sapErrorBorderColor": "#ff8888",
			"sapWarningBorderColor": "#fabd64",
			"sapSuccessBorderColor": "#abe2ab",
			"sapInformationBorderColor": "#91c8f6",
			"sapNeutralBorderColor": "#d3d7d9",
			"sapNegativeElementColor": "#ff8888",
			"sapCriticalElementColor": "#fabd64",
			"sapPositiveElementColor": "#abe2ab",
			"sapInformativeElementColor": "#91c8f6",
			"sapNeutralElementColor": "#d3d7d9",
			"sapNegativeTextColor": "#ff8888",
			"sapCriticalTextColor": "#fabd64",
			"sapPositiveTextColor": "#abe2ab",
			"sapInformativeTextColor": "#91c8f6",
			"sapNeutralTextColor": "#d3d7d9",
			"sapNegativeColor": "#ff8888",
			"sapCriticalColor": "#fabd64",
			"sapPositiveColor": "#abe2ab",
			"sapInformativeColor": "#91c8f6",
			"sapNeutralColor": "#d3d7d9",
			"sapErrorColor": "#ff8888",
			"sapWarningColor": "#fabd64",
			"sapSuccessColor": "#abe2ab",
			"sapInformationColor": "#91c8f6",
			"sapIndicationColor_1": "#ff8888",
			"sapIndicationColor_2": "#ffbbbb",
			"sapIndicationColor_3": "#fabd64",
			"sapIndicationColor_4": "#abe2ab",
			"sapIndicationColor_5": "#91c8f6",
			"sapSelectedColor": "#91c8f6",
			"sapActiveColor": "#91c8f6",
			"sapHighlightTextColor": "#2f3c48",
			"sapTitleColor": "#fafafa",
			"sapContent_IconColor": "#cae4fb",
			"sapContent_ContrastIconColor": "#2f3c48",
			"sapContent_NonInteractiveIconColor": "#97aabb",
			"sapContent_MarkerIconColor": "#8ca7d5",
			"sapContent_MarkerTextColor": "#b7cfe4",
			"sapContent_ImagePlaceholderBackground": "#69859d",
			"sapContent_ImagePlaceholderForegroundColor": "#495e70",
			"sapContent_UnratedColor": "#8ea3b6",
			"sapContent_FocusColor": "#fff",
			"sapContent_ContrastFocusColor": "#000",
			"sapContent_Shadow0": "0 0 0 1px rgba(0,0,0,0.2)",
			"sapContent_Shadow1": "0 0.125rem 0.5rem 0 rgba(0,0,0,0.2), 0 0 0 1px rgba(0,0,0,0.2)",
			"sapContent_Shadow2": "0 0.625rem 1.875rem 0 rgba(0,0,0,0.2), 0 0 0 1px rgba(0,0,0,0.2)",
			"sapContent_Shadow3": "0 1.25rem 5rem 0 rgba(0,0,0,0.2), 0 0 0 1px rgba(0,0,0,0.2)",
			"sapContent_HeaderShadow": "0 0.125rem 0 0 #3f5161, inset 0 -0.125rem 0 0 #4f667a",
			"sapContent_SearchHighlightColor": "#058088",
			"sapContent_LabelColor": "#ddd",
			"sapContent_DisabledTextColor": "rgba(250,250,250,0.5)",
			"sapContent_ContrastTextThreshold": "0.5",
			"sapContent_ContrastTextColor": "#2f3c48",
			"sapContent_ForegroundColor": "#4d6377",
			"sapContent_ForegroundBorderColor": "#889eb1",
			"sapContent_ForegroundTextColor": "#fafafa",
			"sapContent_DragAndDropActiveColor": "#7ed0ff",
			"sapShell_Background": "#6585a3",
			"sapShell_BackgroundImage": "linear-gradient(to bottom, #2b4863, #9ebfde)",
			"sapShell_BackgroundGradient": "linear-gradient(to bottom, #2b4863, #9ebfde)",
			"sapShell_TextColor": "#fff",
			"sapShell_InteractiveTextColor": "#fff",
			"sapShell_InteractiveBorderColor": "#7891a7",
			"sapShell_GroupTitleTextColor": "#fafafa",
			"sapShell_Hover_Background": "#5f95c2",
			"sapShell_Active_Background": "#91c8f6",
			"sapShell_Active_TextColor": "#2f3c48",
			"sapShell_Selected_Background": "#91c8f6",
			"sapShell_Selected_TextColor": "#2f3c48",
			"sapShell_Selected_Hover_Background": "#91c8f6",
			"sapShell_Navigation_SelectedColor": "#fff",
			"sapShell_Navigation_Selected_TextColor": "#fff",
			"sapShell_Navigation_TextColor": "#fafafa",
			"sapShell_Shadow": "0 0.125rem 0 0 #597895",
			"sapButton_Background": "#435667",
			"sapButton_BorderColor": "#a0b2c1",
			"sapButton_TextColor": "#cae4fb",
			"sapButton_Hover_Background": "#4f657a",
			"sapButton_Hover_BorderColor": "#a0b2c1",
			"sapButton_Hover_TextColor": "#cae4fb",
			"sapButton_IconColor": "#cae4fb",
			"sapButton_Active_Background": "#91c8f6",
			"sapButton_Active_BorderColor": "#91c8f6",
			"sapButton_Active_TextColor": "#2f3c48",
			"sapButton_Emphasized_Background": "#5496cd",
			"sapButton_Emphasized_BorderColor": "#408ac7",
			"sapButton_Emphasized_Hover_Background": "#408ac7",
			"sapButton_Emphasized_Hover_BorderColor": "#408ac7",
			"sapButton_Emphasized_Active_Background": "#91c8f6",
			"sapButton_Emphasized_Active_BorderColor": "#91c8f6",
			"sapButton_Reject_Background": "#435667",
			"sapButton_Reject_BorderColor": "#ff8888",
			"sapButton_Reject_Hover_Background": "#4f657a",
			"sapButton_Reject_Hover_BorderColor": "#ff8888",
			"sapButton_Reject_Hover_TextColor": "#f88",
			"sapButton_Reject_Active_Background": "#ff6e6e",
			"sapButton_Reject_Active_BorderColor": "#ff6e6e",
			"sapButton_Reject_TextColor": "#f88",
			"sapButton_Accept_Background": "#435667",
			"sapButton_Accept_BorderColor": "#abe2ab",
			"sapButton_Accept_Hover_Background": "#4f657a",
			"sapButton_Accept_Hover_BorderColor": "#abe2ab",
			"sapButton_Accept_Hover_TextColor": "#abe2ab",
			"sapButton_Accept_Active_Background": "#98db98",
			"sapButton_Accept_Active_BorderColor": "#98db98",
			"sapButton_Accept_TextColor": "#abe2ab",
			"sapButton_Lite_TextColor": "#cae4fb",
			"sapButton_Lite_Hover_Background": "rgba(35,45,54,0.5)",
			"sapButton_Lite_Hover_TextColor": "#cae4fb",
			"sapButton_Lite_Active_Background": "#91c8f6",
			"sapButton_Lite_Active_BorderColor": "#91c8f6",
			"sapButton_Selected_Background": "#62b0f2",
			"sapButton_Selected_BorderColor": "#4aa4f0",
			"sapButton_Selected_TextColor": "#2f3c48",
			"sapButton_Selected_Hover_Background": "#54a9f1",
			"sapButton_Selected_Hover_BorderColor": "#54a9f1",
			"sapField_Background": "#495e70",
			"sapField_BorderColor": "#7891a7",
			"sapField_TextColor": "#fff",
			"sapField_PlaceholderTextColor": "#c3d7e8",
			"sapField_HelpBackground": "#495e70",
			"sapField_Hover_Background": "#495e70",
			"sapField_Hover_BorderColor": "#91c8f6",
			"sapField_Hover_HelpBackground": "#91c8f6",
			"sapField_Active_BorderColor": "#91c8f6",
			"sapField_Focus_Background": "#495e70",
			"sapField_Focus_BorderColor": "#7891a7",
			"sapField_Focus_HelpBackground": "#495e70",
			"sapField_Disabled_TextColor": "rgba(255,255,255,0.5)",
			"sapField_ReadOnly_Background": "transparent",
			"sapField_ReadOnly_BorderColor": "#7891a7",
			"sapField_ReadOnly_HelpBackground": "transparent",
			"sapField_RequiredColor": "#d88b8b",
			"sapField_InvalidColor": "#ff8888",
			"sapField_InvalidBackground": "#495e70",
			"sapField_WarningColor": "#fabd64",
			"sapField_WarningBackground": "#495e70",
			"sapField_SuccessColor": "#abe2ab",
			"sapField_SuccessBackground": "#495e70",
			"sapField_InformationColor": "#91c8f6",
			"sapField_InformationBackground": "#495e70",
			"sapGroup_TitleBorderColor": "#69859d",
			"sapGroup_TitleTextColor": "#fafafa",
			"sapGroup_ContentBackground": "#3f5161",
			"sapGroup_ContentBorderColor": "#4f667a",
			"sapToolbar_SeparatorColor": "rgba(239,244,249,0.2)",
			"sapList_HeaderBackground": "#3c4d5c",
			"sapList_HeaderBorderColor": "#4d6377",
			"sapList_HeaderTextColor": "#fafafa",
			"sapList_BorderColor": "#4d6377",
			"sapList_TextColor": "#fafafa",
			"sapList_Active_Background": "#427cac",
			"sapList_Active_TextColor": "#fafafa",
			"sapList_HighlightColor": "#427cac",
			"sapList_SelectionBackgroundColor": "#496b8a",
			"sapList_SelectionBorderColor": "#4d6377",
			"sapList_Hover_SelectionBackground": "#4e7394",
			"sapList_Background": "#3f5161",
			"sapList_Hover_Background": "#45596a",
			"sapList_GroupHeaderBackground": "#3f5161",
			"sapList_GroupHeaderBorderColor": "#69859e",
			"sapList_GroupHeaderTextColor": "#b7cfe4",
			"sapList_FooterBackground": "#2f3c48",
			"sapList_FooterTextColor": "#fafafa",
			"sapList_TableGroupHeaderBackground": "#3b4c5b",
			"sapList_TableGroupHeaderBorderColor": "#69859e",
			"sapList_TableGroupHeaderTextColor": "#b7cfe4",
			"sapList_TableFooterBorder": "#69859e",
			"sapList_TableFixedBorderColor": "#9dafc0",
			"sapScrollBar_FaceColor": "#0099db",
			"sapScrollBar_TrackColor": "#3f5161",
			"sapScrollBar_BorderColor": "#0099db",
			"sapScrollBar_SymbolColor": "#cae4fb",
			"sapScrollBar_Hover_FaceColor": "#00a4ea",
			"sapPageHeader_Background": "#3f5161",
			"sapPageHeader_BorderColor": "#4f667a",
			"sapPageHeader_TextColor": "#fafafa",
			"sapPageFooter_Background": "#2f3c48",
			"sapPageFooter_BorderColor": "#475b6d",
			"sapPageFooter_TextColor": "#fafafa",
			"sapInfobar_Active_Background": "#427cac",
			"sapObjectHeader_Background": "#3f5161",
			"sapObjectHeader_BorderColor": "#4f667a",
			"sapTile_Background": "#3f5161",
			"sapTile_Hover_Background": "#45596a",
			"sapTile_Active_Background": "#45596a",
			"sapTile_TitleTextColor": "#fafafa",
			"sapTile_TextColor": "#ddd",
			"sapTile_IconColor": "#83c0f6",
			"sapChart_Bad": "#f55556",
			"sapChart_Critical": "#f4ac44",
			"sapChart_Good": "#69c683",
			"sapChart_Neutral": "#9ea8ad",
			"sapChart_Sequence_Neutral": "#9ea8ad",
			"sapUiBrand": "#427cac",
			"sapUiHighlight": "#91c8f6",
			"sapUiBaseColor": "#3f5161",
			"sapUiBaseBG": "#3f5161",
			"sapUiGlobalBackgroundColor": "#3f5161",
			"sapUiBaseText": "#fafafa",
			"sapUiLink": "#7ed0ff",
			"sapUiGlobalLogo": "none",
			"sapUiSelected": "#91c8f6",
			"sapUiActive": "#91c8f6",
			"sapUiHighlightTextColor": "#2f3c48",
			"sapUiTextTitle": "#fafafa",
			"sapUiLinkHover": "#7ed0ff",
			"sapUiLinkActive": "#7ed0ff",
			"sapUiLinkVisited": "#7ed0ff",
			"sapUiLinkInverted": "#0070b1",
			"sapUiContentIconColor": "#cae4fb",
			"sapUiContentContrastIconColor": "#2f3c48",
			"sapUiContentNonInteractiveIconColor": "#97aabb",
			"sapUiContentMarkerIconColor": "#8ca7d5",
			"sapUiContentMarkerTextColor": "#b7cfe4",
			"sapUiContentImagePlaceholderBackground": "#69859d",
			"sapUiContentImagePlaceholderForegroundColor": "#495e70",
			"sapUiContentUnratedColor": "#8ea3b6",
			"sapUiContentFocusColor": "#fff",
			"sapUiContentContrastFocusColor": "#000",
			"sapUiContentShadow0": "0 0 0 1px rgba(0,0,0,0.2)",
			"sapUiContentShadow1": "0 0.125rem 0.5rem 0 rgba(0,0,0,0.2), 0 0 0 1px rgba(0,0,0,0.2)",
			"sapUiContentShadow2": "0 0.625rem 1.875rem 0 rgba(0,0,0,0.2), 0 0 0 1px rgba(0,0,0,0.2)",
			"sapUiContentShadow3": "0 1.25rem 5rem 0 rgba(0,0,0,0.2), 0 0 0 1px rgba(0,0,0,0.2)",
			"sapUiContentHeaderShadow": "0 0.125rem 0 0 #3f5161, inset 0 -0.125rem 0 0 #4f667a",
			"sapUiContentSearchHighlightColor": "#058088",
			"sapUiContentLabelColor": "#ddd",
			"sapUiContentDisabledTextColor": "rgba(250,250,250,0.5)",
			"sapUiContentContrastTextThreshold": "0.5",
			"sapUiContentContrastTextColor": "#2f3c48",
			"sapUiContentForegroundColor": "#4d6377",
			"sapUiContentForegroundBorderColor": "#889eb1",
			"sapUiContentForegroundTextColor": "#fafafa",
			"sapUiContentDragAndDropActiveColor": "#7ed0ff",
			"sapUiShellBackground": "#6585a3",
			"sapUiShellBackgroundImage": "linear-gradient(to bottom, #2b4863, #9ebfde)",
			"sapUiShellBackgroundGradient": "linear-gradient(to bottom, #2b4863, #9ebfde)",
			"sapUiShellTextColor": "#fff",
			"sapUiShellInteractiveTextColor": "#fff",
			"sapUiShellInteractiveBorderColor": "#7891a7",
			"sapUiShellGroupTitleTextColor": "#fafafa",
			"sapUiShellHoverBackground": "#eff4f9",
			"sapUiShellActiveBackground": "#eff4f9",
			"sapUiShellActiveTextColor": "#2e5778",
			"sapUiShellSelectedBackground": "#91c8f6",
			"sapUiShellSelectedTextColor": "#2f3c48",
			"sapUiShellSelectedHoverBackground": "#91c8f6",
			"sapUiShellNavigationSelectedColor": "#fff",
			"sapUiShellNavigationSelectedTextColor": "#fff",
			"sapUiShellNavigationTextColor": "#fafafa",
			"sapUiShellShadow": "0 0.125rem 0 0 #597895",
			"sapUiButtonBackground": "#435667",
			"sapUiButtonBorderColor": "#a0b2c1",
			"sapUiButtonTextColor": "#cae4fb",
			"sapUiButtonHoverBackground": "#4f657a",
			"sapUiButtonHoverBorderColor": "#a0b2c1",
			"sapUiButtonHoverTextColor": "#cae4fb",
			"sapUiButtonIconColor": "#cae4fb",
			"sapUiButtonActiveBackground": "#91c8f6",
			"sapUiButtonActiveBorderColor": "#91c8f6",
			"sapUiButtonActiveTextColor": "#2f3c48",
			"sapUiButtonEmphasizedBackground": "#5496cd",
			"sapUiButtonEmphasizedBorderColor": "#408ac7",
			"sapUiButtonEmphasizedHoverBackground": "#408ac7",
			"sapUiButtonEmphasizedHoverBorderColor": "#408ac7",
			"sapUiButtonEmphasizedActiveBackground": "#91c8f6",
			"sapUiButtonEmphasizedActiveBorderColor": "#91c8f6",
			"sapUiButtonRejectBackground": "#435667",
			"sapUiButtonRejectBorderColor": "#ff8888",
			"sapUiButtonRejectHoverBackground": "#4f657a",
			"sapUiButtonRejectHoverBorderColor": "#ff8888",
			"sapUiButtonRejectHoverTextColor": "#f88",
			"sapUiButtonRejectActiveBackground": "#ff6e6e",
			"sapUiButtonRejectActiveBorderColor": "#ff6e6e",
			"sapUiButtonRejectTextColor": "#f88",
			"sapUiButtonAcceptBackground": "#435667",
			"sapUiButtonAcceptBorderColor": "#abe2ab",
			"sapUiButtonAcceptHoverBackground": "#4f657a",
			"sapUiButtonAcceptHoverBorderColor": "#abe2ab",
			"sapUiButtonAcceptHoverTextColor": "#abe2ab",
			"sapUiButtonAcceptActiveBackground": "#98db98",
			"sapUiButtonAcceptActiveBorderColor": "#98db98",
			"sapUiButtonAcceptTextColor": "#abe2ab",
			"sapUiButtonLiteTextColor": "#cae4fb",
			"sapUiButtonLiteHoverBackground": "rgba(99,127,153,0.5)",
			"sapUiButtonLiteHoverTextColor": "#cae4fb",
			"sapUiButtonLiteActiveBackground": "#91c8f6",
			"sapUiButtonLiteActiveBorderColor": "#91c8f6",
			"sapUiButtonSelectedBackground": "#62b0f2",
			"sapUiButtonSelectedBorderColor": "#4aa4f0",
			"sapUiButtonSelectedTextColor": "#2f3c48",
			"sapUiButtonSelectedHoverBackground": "#54a9f1",
			"sapUiButtonSelectedHoverBorderColor": "#54a9f1",
			"sapUiFieldBackground": "#495e70",
			"sapUiFieldBorderColor": "#7891a7",
			"sapUiFieldTextColor": "#fff",
			"sapUiFieldPlaceholderTextColor": "#c3d7e8",
			"sapUiFieldHelpBackground": "#495e70",
			"sapUiFieldHoverBackground": "#495e70",
			"sapUiFieldHoverBorderColor": "#91c8f6",
			"sapUiFieldHoverHelpBackground": "#91c8f6",
			"sapUiFieldActiveBorderColor": "#91c8f6",
			"sapUiFieldFocusBackground": "#495e70",
			"sapUiFieldFocusBorderColor": "#7891a7",
			"sapUiFieldFocusHelpBackground": "#495e70",
			"sapUiFieldReadOnlyBackground": "transparent",
			"sapUiFieldReadOnlyBorderColor": "#7891a7",
			"sapUiFieldReadOnlyHelpBackground": "transparent",
			"sapUiFieldDisabledTextColor": "rgba(255,255,255,0.5)",
			"sapUiFieldRequiredColor": "#d88b8b",
			"sapUiFieldInvalidColor": "#ff8888",
			"sapUiFieldInvalidBackground": "#495e70",
			"sapUiFieldWarningColor": "#fabd64",
			"sapUiFieldWarningBackground": "#495e70",
			"sapUiFieldSuccessColor": "#abe2ab",
			"sapUiFieldSuccessBackground": "#495e70",
			"sapUiFieldInformationColor": "#91c8f6",
			"sapUiFieldInformationBackground": "#495e70",
			"sapUiGroupTitleBorderColor": "#69859d",
			"sapUiGroupTitleTextColor": "#fafafa",
			"sapUiGroupContentBackground": "#3f5161",
			"sapUiGroupContentBorderColor": "#4f667a",
			"sapUiToolbarSeparatorColor": "rgba(239,244,249,0.2)",
			"sapUiListHeaderBackground": "#3c4d5c",
			"sapUiListHeaderBorderColor": "#4d6377",
			"sapUiListHeaderTextColor": "#fafafa",
			"sapUiListBorderColor": "#4d6377",
			"sapUiListTextColor": "#fafafa",
			"sapUiListActiveBackground": "#427cac",
			"sapUiListHighlightColor": "#427cac",
			"sapUiListSelectionBackgroundColor": "#496b8a",
			"sapUiListSelectionBorderColor": "#4d6377",
			"sapUiListHoverSelectionBackground": "#4e7394",
			"sapUiListBackground": "#3f5161",
			"sapUiListHoverBackground": "#45596a",
			"sapUiListGroupHeaderBackground": "#3f5161",
			"sapUiListGroupHeaderBorderColor": "#69859e",
			"sapUiListGroupHeaderTextColor": "#b7cfe4",
			"sapUiListFooterBackground": "#2f3c48",
			"sapUiListFooterTextColor": "#fafafa",
			"sapUiListTableGroupHeaderBackground": "#3b4c5b",
			"sapUiListTableGroupHeaderBorderColor": "#69859e",
			"sapUiListTableGroupHeaderTextColor": "#b7cfe4",
			"sapUiListTableFooterBorder": "#69859e",
			"sapUiListTableFixedBorderColor": "#9dafc0",
			"sapUiScrollBarFaceColor": "#0099db",
			"sapUiScrollBarTrackColor": "#3f5161",
			"sapUiScrollBarBorderColor": "#0099db",
			"sapUiScrollBarSymbolColor": "#cae4fb",
			"sapUiScrollBarHoverFaceColor": "#00a4ea",
			"sapUiPageHeaderBackground": "#3f5161",
			"sapUiPageHeaderBorderColor": "#4f667a",
			"sapUiPageHeaderTextColor": "#fafafa",
			"sapUiPageFooterBackground": "#2f3c48",
			"sapUiPageFooterBorderColor": "#475b6d",
			"sapUiPageFooterTextColor": "#fafafa",
			"sapUiInfobarActiveBackground": "#427cac",
			"sapUiObjectHeaderBackground": "#3f5161",
			"sapUiObjectHeaderBorderColor": "#4f667a",
			"sapUiTileBackground": "#3f5161",
			"sapUiTileHoverBackground": "#45596a",
			"sapUiTileActiveBackground": "#45596a",
			"sapUiTileTitleTextColor": "#fafafa",
			"sapUiTileTextColor": "#ddd",
			"sapUiTileIconColor": "#83c0f6",
			"sapUiChartBad": "#f55556",
			"sapUiChartCritical": "#f4ac44",
			"sapUiChartGood": "#69c683",
			"sapUiChartNeutral": "#9ea8ad",
			"sapUiChartSequenceNeutral": "#9ea8ad",
			"sapUiLegend1": "#ffb914",
			"sapUiLegend2": "#f58c4b",
			"sapUiLegend3": "#d88b8b",
			"sapUiLegend4": "#bd8969",
			"sapUiLegend5": "#de54c1",
			"sapUiLegend6": "#00a4eb",
			"sapUiLegend7": "#21c4c4",
			"sapUiLegend8": "#afd645",
			"sapUiLegend9": "#38c3ff",
			"sapUiLegend10": "#b47ea9",
			"sapUiLegend11": "#d1b575",
			"sapUiLegend12": "#ffb98d",
			"sapUiLegend13": "#ffa1a1",
			"sapUiLegend14": "#d5b39e",
			"sapUiLegend15": "#b8adb6",
			"sapUiLegend16": "#c1c8d3",
			"sapUiLegend17": "#a2c2c2",
			"sapUiLegend18": "#aabc78",
			"sapUiLegend19": "#6aafcd",
			"sapUiLegend20": "#a2c0f2",
			"sapUiErrorBG": "#500",
			"sapUiWarningBG": "#5c3803",
			"sapUiSuccessBG": "#174417",
			"sapUiInformationBG": "#062e4f",
			"sapUiNeutralBG": "#393e41",
			"sapUiErrorBorder": "#ff8888",
			"sapUiWarningBorder": "#fabd64",
			"sapUiSuccessBorder": "#abe2ab",
			"sapUiInformationBorder": "#91c8f6",
			"sapUiNeutralBorder": "#d3d7d9",
			"sapUiNegativeElement": "#ff8888",
			"sapUiCriticalElement": "#fabd64",
			"sapUiPositiveElement": "#abe2ab",
			"sapUiInformativeElement": "#91c8f6",
			"sapUiNeutralElement": "#d3d7d9",
			"sapUiNegativeText": "#ff8888",
			"sapUiCriticalText": "#fabd64",
			"sapUiPositiveText": "#abe2ab",
			"sapUiInformativeText": "#91c8f6",
			"sapUiNeutralText": "#d3d7d9",
			"sapUiNegative": "#ff8888",
			"sapUiCritical": "#fabd64",
			"sapUiPositive": "#abe2ab",
			"sapUiInformative": "#91c8f6",
			"sapUiNeutral": "#d3d7d9",
			"sapUiErrorColor": "#fbb",
			"sapUiWarningColor": "#fcd295",
			"sapUiSuccessColor": "#d1efd1",
			"sapUiIndication1": "#ff8888",
			"sapUiIndication2": "#ffbbbb",
			"sapUiIndication3": "#fabd64",
			"sapUiIndication4": "#abe2ab",
			"sapUiIndication5": "#91c8f6",
			"sapUiChartLabelHoverColor": "#4f657a",
			"sapUiChartLabelPressedColor": "#427cac",
			"sapUiChartCategoryAxisLabelFontColor": "#fafafa",
			"sapUiChartValueAxisLabelFontColor": "#fafafa",
			"sapUiChartLegendLabelFontColor": "#fafafa",
			"sapUiChartLegendTitleFontColor": "#fafafa",
			"sapUiChartPaletteUndefinedColor": "#fafafa",
			"sapUiChartGridlineColor": "#999",
			"sapUiChartReferenceLineColor": "#fff",
			"sapUiChartDataLabelFontColor": "#fafafa",
			"sapUiChartReferenceLineLabelColor": "#2f3c48",
			"sapUiChartPopoverDataItemFontColor": "#fafafa",
			"sapUiChartPopoverGroupFontColor": "#fafafa",
			"sapUiChartScrollBarThumbColor": "#0099db",
			"sapUiChartScrollBarTrackColor": "#3f5161",
			"sapUiChartScrollBarThumbHoverColor": "#00a4ea",
			"sapUiChartMainTitleFontColor": "#fafafa",
			"sapUiChartAxisTitleFontColor": "#fafafa",
			"sapUiChartLightText": "#fafafa",
			"sapUiChartZeroAxisColor": "#fff",
			"sapUiChartDataPointBorderColor": "#3f5161",
			"sapUiChartDataPointBorderHoverSelectedColor": "#fff",
			"sapUiChartDataPointNotSelectedBackgroundOpacity": "0.7",
			"sapUiChartCategoryAxisLabelFontHoverColor": "#fafafa",
			"sapUiChartCategoryAxisLabelFontPressedColor": "#fafafa",
			"sapUiChartTargetColor": "#fff",
			"sapUiChartTargetShadowColor": "#000",
			"sapUiChartBubbleBGOpacity": "0.9",
			"sapUiChartScrollbarBorderColor": "#0099db",
			"sapUiChartNegativeLargeText": "#f77c7c",
			"sapUiChartCriticalLargeText": "#f7c174",
			"sapUiChartPositiveLargeText": "#a0dbb1",
			"sapUiChartNeutralLargeText": "#f1f2f3",
			"sapUiChartDataPointBG": "#848f94",
			"sapUiChartDataPointBGBorderColor": "#848f94",
			"sapUiChartDataLineColor": "#fff",
			"sapUiChartRadialRemainingCircle": "#848f94",
			"sapUiChartRadialRemainingCircleBorderColor": "#848f94",
			"sapUiChartRadialBG": "transparent",
			"sapUiChartLegendHoverBackground": "#45596a",
			"sapUiChartLegendSelectionBackground": "#496b8a",
			"sapUiChartLegendSelectionHoverBackground": "#4e7394",
			"sapUiChartPaletteSemanticBadLight3": "#fbc4c4",
			"sapUiChartPaletteSemanticBadLight2": "#f99d9e",
			"sapUiChartPaletteSemanticBadLight1": "#f77c7c",
			"sapUiChartPaletteSemanticBad": "#f55556",
			"sapUiChartPaletteSemanticBadDark1": "#f33334",
			"sapUiChartPaletteSemanticBadDark2": "#ef0e0f",
			"sapUiChartPaletteSemanticCriticalLight3": "#fdecd5",
			"sapUiChartPaletteSemanticCriticalLight2": "#fad7a4",
			"sapUiChartPaletteSemanticCriticalLight1": "#f7c174",
			"sapUiChartPaletteSemanticCritical": "#f4ac44",
			"sapUiChartPaletteSemanticCriticalDark1": "#f19714",
			"sapUiChartPaletteSemanticCriticalDark2": "#de890d",
			"sapUiChartPaletteSemanticGoodLight3": "#d8f0df",
			"sapUiChartPaletteSemanticGoodLight2": "#b3e2c0",
			"sapUiChartPaletteSemanticGoodLight1": "#8ed4a2",
			"sapUiChartPaletteSemanticGood": "#69c683",
			"sapUiChartPaletteSemanticGoodDark1": "#45b765",
			"sapUiChartPaletteSemanticGoodDark2": "#3fa45b",
			"sapUiChartPaletteSemanticNeutralLight3": "#f1f2f3",
			"sapUiChartPaletteSemanticNeutralLight2": "#d5dadc",
			"sapUiChartPaletteSemanticNeutralLight1": "#bac1c4",
			"sapUiChartPaletteSemanticNeutral": "#9ea8ad",
			"sapUiChartPaletteSemanticNeutralDark1": "#848f94",
			"sapUiChartPaletteSemanticNeutralDark2": "#69767c",
			"sapUiChartPaletteSequentialNeutralLight3": "#f1f2f3",
			"sapUiChartPaletteSequentialNeutralLight2": "#d5dadc",
			"sapUiChartPaletteSequentialNeutralLight1": "#bac1c4",
			"sapUiChartPaletteSequentialNeutral": "#9ea8ad",
			"sapUiChartPaletteSequentialNeutralDark1": "#848f94",
			"sapUiChartPaletteSequentialNeutralDark2": "#69767c",
			"sapUiChartPaletteMidArea": "#fff",
			"sapUiChoroplethBG": "#7999a9",
			"sapUiChoroplethRegionBG": "#d5dadc",
			"sapUiMapLegendBG": "#3f5161",
			"sapUiMapLegendBorderColor": "#fff",
			"sapUiShellHoverToggleBackground": "#91c8f6",
			"sapUiShellContainerBackground": "#c4d8eb",
			"sapUiShellAltContainerBackground": "#1b2e40",
			"sapUiShellGroupTextColor": "#fff",
			"sapUiUx3ShellGradientTop": "rgba(145,185,246,0.03)",
			"sapUiButtonHeaderTextColor": "#cae4fb",
			"sapUiButtonHeaderDisabledTextColor": "#cae4fb",
			"sapUiButtonFooterTextColor": "#cae4fb",
			"sapUiButtonFooterHoverBackground": "rgba(99,127,153,0.5)",
			"sapUiButtonActionSelectBackground": "#2f3c48",
			"sapUiButtonActionSelectBorderColor": "#4d6377",
			"sapUiButtonLiteActionSelectHoverBackground": "#354451",
			"sapUiToggleButtonPressedBackground": "#62b0f2",
			"sapUiToggleButtonPressedBorderColor": "#4aa4f0",
			"sapUiToggleButtonPressedTextColor": "#2f3c48",
			"sapUiToggleButtonPressedHoverBackground": "#91c8f6",
			"sapUiToggleButtonPressedHoverBorderColor": "#91c8f6",
			"sapUiSegmentedButtonBackground": "#435667",
			"sapUiSegmentedButtonBorderColor": "#8199ad",
			"sapUiSegmentedButtonTextColor": "#cae4fb",
			"sapUiSegmentedButtonHoverBackground": "#4f657a",
			"sapUiSegmentedButtonActiveBackground": "#91c8f6",
			"sapUiSegmentedButtonActiveTextColor": "#2f3c48",
			"sapUiSegmentedButtonSelectedBackground": "#62b0f2",
			"sapUiSegmentedButtonSelectedTextColor": "#2f3c48",
			"sapUiSegmentedButtonSelectedHoverBackground": "#91c8f6",
			"sapUiSegmentedButtonSelectedHoverBorderColor": "#91c8f6",
			"sapUiSegmentedButtonIconColor": "#cae4fb",
			"sapUiSegmentedButtonActiveIconColor": "#2f3c48",
			"sapUiSegmentedButtonSelectedIconColor": "#2f3c48",
			"sapUiSegmentedButtonFooterBorderColor": "#a0b2c1",
			"sapUiSegmentedButtonFooterHoverBackground": "#4f657a",
			"sapUiFieldActiveBackground": "#91c8f6",
			"sapUiFieldActiveTextColor": "#2f3c48",
			"sapUiListVerticalBorderColor": "#536b80",
			"sapUiListSelectionHoverBackground": "#4e7394",
			"sapUiListTableFixedBorder": "#11161a",
			"sapUiCalendarColorToday": "#e57acf",
			"sapUiDragAndDropColor": "#97aabb",
			"sapUiDragAndDropBackground": "#3f5161",
			"sapUiDragAndDropBorderColor": "#889eb1",
			"sapUiDragAndDropActiveColor": "#7ed0ff",
			"sapUiDragAndDropActiveBackground": "rgba(126,208,255,0.1)",
			"sapUiDragAndDropActiveBorderColor": "#7ed0ff",
			"sapUiShadowLevel0": "0 0 0 1px rgba(255,255,255,0.2)",
			"sapUiShadowLevel1": "0 0.125rem 0.5rem 0 rgba(0,0,0,0.2), 0 0 0 1px rgba(255,255,255,0.2)",
			"sapUiShadowLevel2": "0 0.625rem 1.875rem 0 rgba(0,0,0,0.2), 0 0 0 1px rgba(255,255,255,0.2)",
			"sapUiShadowLevel3": "0 1.25rem 5rem 0 rgba(0,0,0,0.2), 0 0 0 1px rgba(255,255,255,0.2)",
			"sapUiShadowText": "0 0 0.125rem #000",
			"sapUiShadowHeader": "0 0.125rem 0 0 #3f5161, inset 0 -0.125rem 0 0 #4f667a",
			"sapUiUx3ShellHeaderImageURL": "",
			"sapUiUx3ShellApplicationImageURL": "none",
			"sapUiExtraLightBG": "#3f5161",
			"sapUiButtonStandardBG": "#3f5161",
			"sapUiText": "#fafafa",
			"sapUiEmphasizedLine": "#91c8f6",
			"sapUiTableRowSelectionBG": "#91c8f6",
			"sapUiTableRowSelectionReadOnlyBG": "#91c8f6",
			"sapUiTextDisabled": "#fff",
			"sapUiNotifierHoverColor": "#91c8f6",
			"sapUiNotificationTimestamp": "#fff",
			"sapUiButtonEmphasizedDisabledBorderColor": "#408ac7",
			"sapUiButtonEmphasizedDisabledBackground": "#5496cd",
			"sapUiButtonAcceptDisabledBorderColor": "#abe2ab",
			"sapUiButtonAcceptDisabledBackground": "#435667",
			"sapUiButtonRejectDisabledBorderColor": "#ff8888",
			"sapUiButtonRejectDisabledBackground": "#435667",
			"sapUiToggleButtonPressedDisabledBackground": "#62b0f2",
			"sapUiToggleButtonPressedDisabledBorderColor": "#4aa4f0",
			"sapUiToggleButtonPressedDisabledTextColor": "#f2f8fe",
			"sapUiPositiveBG": "#abe2ab",
			"sapUiEscapedEmptyString": "",
			"sapUiLightBoxMagnifyingGlassBackgroundColor": "#7ed0ff",
			"_sap_ui_core_LocalBusyIndicator_Background": "rgba(63,81,97,0.72)",
			"_sap_ui_core_LocalBusyIndicator_BackgroundIE": "#3f5161",
			"_sap_ui_core_LocalBusyIndicator_Color": "#427cac",
			"sapBackgroundColorDefault": "#3f5161"
		}
	}
}