{
	"zipInfo": {
		"creatorName": "Theming Engine",
		"creatorVersion": "1.54.0",
		"created": "2021-12-10T13:22:44Z",
		"lessVersion": "1.6.3",
		"compression": "none",
		"exportMode": "ALL"
	},
	"contentInfo": {
		"sourcePath": "https://web-e31.heraeus.com/sap/bc/theming/themes/~client-010",
		"frameworks": {
			"Base": {
				"version": "11.1.21"
			},
			"UI5": {
				"version": "1.71.24"
			}
		},
		"libraries": {
			"Base.baseLib": {
				"version": "11.1.21"
			},
			"UI5.sap/ca/ui": {
				"version": "1.71.0"
			},
			"UI5.sap/collaboration": {
				"version": "1.71.0"
			},
			"UI5.sap/f": {
				"version": "1.71.21"
			},
			"UI5.sap/fe": {
				"version": "1.71.1"
			},
			"UI5.sap/fileviewer": {
				"version": "1.71.0"
			},
			"UI5.sap/fiori": {
				"version": "1.71.24"
			},
			"UI5.sap/gantt": {
				"version": "1.71.13"
			},
			"UI5.sap/m": {
				"version": "1.71.21"
			},
			"UI5.sap/me": {
				"version": "1.71.21"
			},
			"UI5.sap/ovp": {
				"version": "1.71.11"
			},
			"UI5.sap/rules/ui": {
				"version": "1.71.9"
			},
			"UI5.sap/suite/ui/commons": {
				"version": "1.71.7"
			},
			"UI5.sap/suite/ui/generic/template": {
				"version": "1.71.21"
			},
			"UI5.sap/suite/ui/microchart": {
				"version": "1.71.21"
			},
			"UI5.sap/tnt": {
				"version": "1.71.21"
			},
			"UI5.sap/ui/codeeditor": {
				"version": "1.71.21"
			},
			"UI5.sap/ui/commons": {
				"version": "1.71.21"
			},
			"UI5.sap/ui/comp": {
				"version": "1.71.21"
			},
			"UI5.sap/ui/core": {
				"version": "1.71.21"
			},
			"UI5.sap/ui/dt": {
				"version": "1.71.21"
			},
			"UI5.sap/ui/export": {
				"version": "1.71.21"
			},
			"UI5.sap/ui/fl": {
				"version": "1.71.21"
			},
			"UI5.sap/ui/layout": {
				"version": "1.71.21"
			},
			"UI5.sap/ui/mdc": {
				"version": "1.71.21"
			},
			"UI5.sap/ui/richtexteditor": {
				"version": "1.71.21"
			},
			"UI5.sap/ui/rta": {
				"version": "1.71.21"
			},
			"UI5.sap/ui/suite": {
				"version": "1.71.21"
			},
			"UI5.sap/ui/table": {
				"version": "1.71.21"
			},
			"UI5.sap/ui/unified": {
				"version": "1.71.21"
			},
			"UI5.sap/ui/ux3": {
				"version": "1.71.21"
			},
			"UI5.sap/ui/vbm": {
				"version": "1.71.7"
			},
			"UI5.sap/ui/vk": {
				"version": "1.71.3"
			},
			"UI5.sap/ui/vtm": {
				"version": "1.71.0"
			},
			"UI5.sap/ushell": {
				"version": "1.71.22"
			},
			"UI5.sap/uxap": {
				"version": "1.71.21"
			},
			"UI5.sap/viz": {
				"version": "1.71.21"
			},
			"UI5.sap/zen/commons": {
				"version": "1.71.19"
			},
			"UI5.sap/zen/crosstab": {
				"version": "1.71.19"
			}
		},
		"themes": {
			"open_space_belize": {
				"id": "open_space_belize",
				"extends": "sap_belize",
				"label": "Open Space for Open Minds ",
				"vendor": "Heraeus infosystems GmbH",
				"textDirections": "LTR"
			},
			"open_space_belize--Contrast": {
				"id": "open_space_belize--Contrast",
				"extends": "sap_belize_plus",
				"label": "",
				"vendor": "",
				"textDirections": ""
			}
		}
	}
}